<?xml version="1.0" encoding="UTF-8" standalone="no"?>
<svg
   xmlns:dc="http://purl.org/dc/elements/1.1/"
   xmlns:cc="http://creativecommons.org/ns#"
   xmlns:rdf="http://www.w3.org/1999/02/22-rdf-syntax-ns#"
   xmlns:svg="http://www.w3.org/2000/svg"
   xmlns="http://www.w3.org/2000/svg"
   xmlns:sodipodi="http://sodipodi.sourceforge.net/DTD/sodipodi-0.dtd"
   xmlns:inkscape="http://www.inkscape.org/namespaces/inkscape"
   data-dec="123"
   width="14"
   height="40"
   version="1.1"
   id="svg4"
   sodipodi:docname="123.svg"
   inkscape:version="0.92.4 (unknown)">
  <metadata
     id="metadata10">
    <rdf:RDF>
      <cc:Work
         rdf:about="">
        <dc:format>image/svg+xml</dc:format>
        <dc:type
           rdf:resource="http://purl.org/dc/dcmitype/StillImage" />
      </cc:Work>
    </rdf:RDF>
  </metadata>
  <defs
     id="defs8" />
  <sodipodi:namedview
     pagecolor="#ffffff"
     bordercolor="#666666"
     borderopacity="1"
     objecttolerance="10"
     gridtolerance="10"
     guidetolerance="10"
     inkscape:pageopacity="0"
     inkscape:pageshadow="2"
     inkscape:window-width="640"
     inkscape:window-height="480"
     id="namedview6"
     showgrid="false"
     inkscape:zoom="7.3519531"
     inkscape:cx="7"
     inkscape:cy="20"
     inkscape:window-x="0"
     inkscape:window-y="27"
     inkscape:window-maximized="0"
     inkscape:current-layer="svg4" />
  <path
     style="color:#000000;font-style:normal;font-variant:normal;font-weight:normal;font-stretch:normal;font-size:medium;line-height:normal;font-family:sans-serif;font-variant-ligatures:normal;font-variant-position:normal;font-variant-caps:normal;font-variant-numeric:normal;font-variant-alternates:normal;font-feature-settings:normal;text-indent:0;text-align:start;text-decoration:none;text-decoration-line:none;text-decoration-style:solid;text-decoration-color:#000000;letter-spacing:normal;word-spacing:normal;text-transform:none;writing-mode:lr-tb;direction:ltr;text-orientation:mixed;dominant-baseline:auto;baseline-shift:baseline;text-anchor:start;white-space:normal;shape-padding:0;clip-rule:nonzero;display:inline;overflow:visible;visibility:visible;opacity:1;isolation:auto;mix-blend-mode:normal;color-interpolation:sRGB;color-interpolation-filters:linearRGB;solid-color:#000000;solid-opacity:1;vector-effect:none;fill:#000000;fill-opacity:1;fill-rule:nonzero;stroke:none;stroke-width:2;stroke-linecap:round;stroke-linejoin:round;stroke-miterlimit:4;stroke-dasharray:none;stroke-dashoffset:0;stroke-opacity:1;color-rendering:auto;image-rendering:auto;shape-rendering:auto;text-rendering:auto;enable-background:accumulate"
     d="m 9.0039062,-4.0058594 a 1.0001,1.0001 0 0 1 0.4433594,1.9003906 L 7.7460938,-1.2539062 7,0.23632812 V 1.7636719 l 0.8222656,1.6445312 0.8847656,0.8847657 a 1.0001,1.0001 0 0 1 0.1875,0.2597656 l 1,2 A 1.0001,1.0001 0 0 1 10,7 V 9 A 1.0001,1.0001 0 0 1 9.8945312,9.4472656 l -1,2.0000004 a 1.0001,1.0001 0 0 1 -0.4472656,0.447265 l -1.9335937,0.966797 a 1.0001,1.0001 0 0 1 -0.1582031,0.08008 L 6.2363281,13 6.359375,13.060547 a 1.0001,1.0001 0 0 1 0.1523438,0.07617 l 1.9355468,0.96875 a 1.0001,1.0001 0 0 1 0.4472656,0.447265 l 1,2 A 1.0001,1.0001 0 0 1 10,17 v 2 a 1.0001,1.0001 0 0 1 -0.1054688,0.447266 l -1,2 a 1.0001,1.0001 0 0 1 -0.1875,0.259765 L 7.8222656,22.591797 7,24.236328 v 1.527344 l 0.7460938,1.490234 1.7011718,0.851563 A 1.0001161,1.0001161 0 1 1 8.5527344,29.894531 L 6.6679688,28.953125 A 1.0001,1.0001 0 0 1 6.2421875,28.65625 L 5.2929688,27.707031 a 1.0001,1.0001 0 0 1 -0.1875,-0.259765 l -1,-2 A 1.0001,1.0001 0 0 1 4,25 v -2 a 1.0001,1.0001 0 0 1 0.1054688,-0.447266 l 1,-2 a 1.0001,1.0001 0 0 1 0.1875,-0.259765 L 6.1777344,19.408203 7,17.763672 v -1.34961 L 5.4101562,14.824219 3.5527344,13.894531 a 1.0001,1.0001 0 0 1 0,-1.789062 L 5.4101562,11.175781 7,9.5859375 V 8.2363281 L 6.1777344,6.5917969 5.2929688,5.7070312 a 1.0001,1.0001 0 0 1 -0.1875,-0.2597656 l -1,-2 A 1.0001,1.0001 0 0 1 4,3 V 1 A 1.0001,1.0001 0 0 1 4.1054688,0.55273438 l 1,-1.99999998 a 1.0001,1.0001 0 0 1 0.1875,-0.2597656 L 6.2382812,-2.6523438 A 1.0001,1.0001 0 0 1 6.671875,-2.9550781 l 1.8808594,-0.9394531 a 1.0001,1.0001 0 0 1 0.4511718,-0.1113282 z"
     id="path2" />
</svg>
