<?xml version="1.0" encoding="UTF-8" standalone="no"?>
<svg
   xmlns:dc="http://purl.org/dc/elements/1.1/"
   xmlns:cc="http://creativecommons.org/ns#"
   xmlns:rdf="http://www.w3.org/1999/02/22-rdf-syntax-ns#"
   xmlns:svg="http://www.w3.org/2000/svg"
   xmlns="http://www.w3.org/2000/svg"
   xmlns:sodipodi="http://sodipodi.sourceforge.net/DTD/sodipodi-0.dtd"
   xmlns:inkscape="http://www.inkscape.org/namespaces/inkscape"
   data-dec="33"
   width="10"
   height="40"
   version="1.1"
   id="svg4"
   sodipodi:docname="33.svg"
   inkscape:version="0.92.4 (unknown)">
  <metadata
     id="metadata10">
    <rdf:RDF>
      <cc:Work
         rdf:about="">
        <dc:format>image/svg+xml</dc:format>
        <dc:type
           rdf:resource="http://purl.org/dc/dcmitype/StillImage" />
      </cc:Work>
    </rdf:RDF>
  </metadata>
  <defs
     id="defs8" />
  <sodipodi:namedview
     pagecolor="#ffffff"
     bordercolor="#666666"
     borderopacity="1"
     objecttolerance="10"
     gridtolerance="10"
     guidetolerance="10"
     inkscape:pageopacity="0"
     inkscape:pageshadow="2"
     inkscape:window-width="640"
     inkscape:window-height="480"
     id="namedview6"
     showgrid="false"
     inkscape:zoom="7.3519531"
     inkscape:cx="5"
     inkscape:cy="20"
     inkscape:window-x="0"
     inkscape:window-y="27"
     inkscape:window-maximized="0"
     inkscape:current-layer="svg4" />
  <path
     style="color:#000000;font-style:normal;font-variant:normal;font-weight:normal;font-stretch:normal;font-size:medium;line-height:normal;font-family:sans-serif;font-variant-ligatures:normal;font-variant-position:normal;font-variant-caps:normal;font-variant-numeric:normal;font-variant-alternates:normal;font-feature-settings:normal;text-indent:0;text-align:start;text-decoration:none;text-decoration-line:none;text-decoration-style:solid;text-decoration-color:#000000;letter-spacing:normal;word-spacing:normal;text-transform:none;writing-mode:lr-tb;direction:ltr;text-orientation:mixed;dominant-baseline:auto;baseline-shift:baseline;text-anchor:start;white-space:normal;shape-padding:0;clip-rule:nonzero;display:inline;overflow:visible;visibility:visible;opacity:1;isolation:auto;mix-blend-mode:normal;color-interpolation:sRGB;color-interpolation-filters:linearRGB;solid-color:#000000;solid-opacity:1;vector-effect:none;fill:#000000;fill-opacity:1;fill-rule:nonzero;stroke:none;stroke-width:2;stroke-linecap:round;stroke-linejoin:round;stroke-miterlimit:4;stroke-dasharray:none;stroke-dashoffset:0;stroke-opacity:1;color-rendering:auto;image-rendering:auto;shape-rendering:auto;text-rendering:auto;enable-background:accumulate"
     d="M 4.984375,-0.01367188 A 1.0001,1.0001 0 0 1 5.1679688,0 H 6 a 1.0001,1.0001 0 0 1 0.7070312,0.29296875 l 1,1.00000005 A 1.0001,1.0001 0 0 1 7.9921875,2.125 L 6.0078125,18 a 1.0001,1.0001 0 0 1 0.6992187,0.292969 l 1,1 A 1.0001,1.0001 0 0 1 8,20 v 2 a 1.0001,1.0001 0 0 1 -0.2929688,0.707031 l -1,1 A 1.0001,1.0001 0 0 1 6,24 H 4 A 1.0001,1.0001 0 0 1 3.2929688,23.707031 l -1,-1 A 1.0001,1.0001 0 0 1 2,22 v -2 a 1.0001,1.0001 0 0 1 0.2929688,-0.707031 l 1,-1 A 1.0001,1.0001 0 0 1 3.9921875,18 L 2.0078125,2.125 A 1.0001,1.0001 0 0 1 2.2929688,1.2929688 l 1,-1.00000005 A 1.0001,1.0001 0 0 1 4,0 H 4.8417969 A 1.0001,1.0001 0 0 1 4.984375,-0.01367188 Z"
     id="path2" />
</svg>
