<?xml version="1.0" encoding="UTF-8" standalone="no"?>
<svg
   xmlns:dc="http://purl.org/dc/elements/1.1/"
   xmlns:cc="http://creativecommons.org/ns#"
   xmlns:rdf="http://www.w3.org/1999/02/22-rdf-syntax-ns#"
   xmlns:svg="http://www.w3.org/2000/svg"
   xmlns="http://www.w3.org/2000/svg"
   xmlns:sodipodi="http://sodipodi.sourceforge.net/DTD/sodipodi-0.dtd"
   xmlns:inkscape="http://www.inkscape.org/namespaces/inkscape"
   data-dec="68"
   width="20"
   height="40"
   version="1.1"
   id="svg4"
   sodipodi:docname="68.svg"
   inkscape:version="0.92.4 (unknown)">
  <metadata
     id="metadata10">
    <rdf:RDF>
      <cc:Work
         rdf:about="">
        <dc:format>image/svg+xml</dc:format>
        <dc:type
           rdf:resource="http://purl.org/dc/dcmitype/StillImage" />
      </cc:Work>
    </rdf:RDF>
  </metadata>
  <defs
     id="defs8" />
  <sodipodi:namedview
     pagecolor="#ffffff"
     bordercolor="#666666"
     borderopacity="1"
     objecttolerance="10"
     gridtolerance="10"
     guidetolerance="10"
     inkscape:pageopacity="0"
     inkscape:pageshadow="2"
     inkscape:window-width="640"
     inkscape:window-height="480"
     id="namedview6"
     showgrid="false"
     inkscape:zoom="7.3519531"
     inkscape:cx="10"
     inkscape:cy="20"
     inkscape:window-x="0"
     inkscape:window-y="27"
     inkscape:window-maximized="0"
     inkscape:current-layer="svg4" />
  <path
     style="color:#000000;font-style:normal;font-variant:normal;font-weight:normal;font-stretch:normal;font-size:medium;line-height:normal;font-family:sans-serif;font-variant-ligatures:normal;font-variant-position:normal;font-variant-caps:normal;font-variant-numeric:normal;font-variant-alternates:normal;font-feature-settings:normal;text-indent:0;text-align:start;text-decoration:none;text-decoration-line:none;text-decoration-style:solid;text-decoration-color:#000000;letter-spacing:normal;word-spacing:normal;text-transform:none;writing-mode:lr-tb;direction:ltr;text-orientation:mixed;dominant-baseline:auto;baseline-shift:baseline;text-anchor:start;white-space:normal;shape-padding:0;clip-rule:nonzero;display:inline;overflow:visible;visibility:visible;opacity:1;isolation:auto;mix-blend-mode:normal;color-interpolation:sRGB;color-interpolation-filters:linearRGB;solid-color:#000000;solid-opacity:1;vector-effect:none;fill:#000000;fill-opacity:1;fill-rule:nonzero;stroke:none;stroke-width:2;stroke-linecap:round;stroke-linejoin:round;stroke-miterlimit:4;stroke-dasharray:none;stroke-dashoffset:0;stroke-opacity:1;color-rendering:auto;image-rendering:auto;shape-rendering:auto;text-rendering:auto;enable-background:accumulate"
     d="M 5,3 V 21 H 8.6972656 L 11.363281,19.222656 13.177734,17.408203 15,13.763672 V 10.162109 L 14.125,7.5410156 11.363281,4.7773438 8.6972656,3 Z M 2.984375,0.98632812 A 1.0001,1.0001 0 0 1 3.1679688,1 h 0.6738281 a 1.0001,1.0001 0 0 1 0.3261719,0 h 4.6972656 a 1.0001,1.0001 0 0 1 0.099609,-0.005859 1.0001,1.0001 0 0 1 0.087891,0.001953 1.0001,1.0001 0 0 1 0.011719,0 1.0001,1.0001 0 0 1 0.00586,0 1.0001,1.0001 0 0 1 0.1914063,0.0351563 1.0001,1.0001 0 0 1 0.046875,0.015625 l 3.9335942,0.9824219 a 1.0001,1.0001 0 0 1 0.464843,0.2636719 l 2,2 2,2 a 1.0001,1.0001 0 0 1 0.242188,0.390625 l 1,3 A 1.0001,1.0001 0 0 1 19,10 v 4 a 1.0001,1.0001 0 0 1 -0.105469,0.447266 l -1,2 a 1.0001,1.0001 0 0 1 -0.0625,0.107422 l -2,3 a 1.0001,1.0001 0 0 1 -0.125,0.152343 l -2,2 a 1.0001,1.0001 0 0 1 -0.464843,0.263672 l -3.9238286,0.980469 a 1.0001,1.0001 0 0 1 -0.00391,0.002 1.0001,1.0001 0 0 1 -0.023437,0.0059 1.0001,1.0001 0 0 1 -0.097656,0.02539 1.0001,1.0001 0 0 1 -0.2988282,0.01758 A 1.0001,1.0001 0 0 1 8.8710938,23 H 4.1582031 A 1.0001,1.0001 0 0 1 3.8320312,23 H 3.1582031 A 1.0001,1.0001 0 0 1 2.8320312,23 H 2 A 1.0001,1.0001 0 0 1 1,22 V 2 A 1.0001,1.0001 0 0 1 2,1 H 2.8417969 A 1.0001,1.0001 0 0 1 2.984375,0.98632812 Z"
     id="path2" />
</svg>
