<?xml version="1.0" encoding="UTF-8" standalone="no"?>
<svg
   xmlns:dc="http://purl.org/dc/elements/1.1/"
   xmlns:cc="http://creativecommons.org/ns#"
   xmlns:rdf="http://www.w3.org/1999/02/22-rdf-syntax-ns#"
   xmlns:svg="http://www.w3.org/2000/svg"
   xmlns="http://www.w3.org/2000/svg"
   xmlns:sodipodi="http://sodipodi.sourceforge.net/DTD/sodipodi-0.dtd"
   xmlns:inkscape="http://www.inkscape.org/namespaces/inkscape"
   data-dec="79"
   width="20"
   height="40"
   version="1.1"
   id="svg4"
   sodipodi:docname="79.svg"
   inkscape:version="0.92.4 (unknown)">
  <metadata
     id="metadata10">
    <rdf:RDF>
      <cc:Work
         rdf:about="">
        <dc:format>image/svg+xml</dc:format>
        <dc:type
           rdf:resource="http://purl.org/dc/dcmitype/StillImage" />
      </cc:Work>
    </rdf:RDF>
  </metadata>
  <defs
     id="defs8" />
  <sodipodi:namedview
     pagecolor="#ffffff"
     bordercolor="#666666"
     borderopacity="1"
     objecttolerance="10"
     gridtolerance="10"
     guidetolerance="10"
     inkscape:pageopacity="0"
     inkscape:pageshadow="2"
     inkscape:window-width="640"
     inkscape:window-height="480"
     id="namedview6"
     showgrid="false"
     inkscape:zoom="7.3519531"
     inkscape:cx="10"
     inkscape:cy="20"
     inkscape:window-x="0"
     inkscape:window-y="27"
     inkscape:window-maximized="0"
     inkscape:current-layer="svg4" />
  <path
     style="color:#000000;font-style:normal;font-variant:normal;font-weight:normal;font-stretch:normal;font-size:medium;line-height:normal;font-family:sans-serif;font-variant-ligatures:normal;font-variant-position:normal;font-variant-caps:normal;font-variant-numeric:normal;font-variant-alternates:normal;font-feature-settings:normal;text-indent:0;text-align:start;text-decoration:none;text-decoration-line:none;text-decoration-style:solid;text-decoration-color:#000000;letter-spacing:normal;word-spacing:normal;text-transform:none;writing-mode:lr-tb;direction:ltr;text-orientation:mixed;dominant-baseline:auto;baseline-shift:baseline;text-anchor:start;white-space:normal;shape-padding:0;clip-rule:nonzero;display:inline;overflow:visible;visibility:visible;opacity:1;isolation:auto;mix-blend-mode:normal;color-interpolation:sRGB;color-interpolation-filters:linearRGB;solid-color:#000000;solid-opacity:1;vector-effect:none;fill:#000000;fill-opacity:1;fill-rule:nonzero;stroke:none;stroke-width:2;stroke-linecap:round;stroke-linejoin:round;stroke-miterlimit:4;stroke-dasharray:none;stroke-dashoffset:0;stroke-opacity:1;color-rendering:auto;image-rendering:auto;shape-rendering:auto;text-rendering:auto;enable-background:accumulate"
     d="M 10,3.1171875 6.7460938,4.7460938 5.9433594,6.3496094 5,10.123047 v 3.753906 L 5.9433594,17.650391 6.7460938,19.253906 10,20.880859 13.253906,19.253906 14.056641,17.650391 15,13.876953 V 10.123047 L 14.056641,6.3496094 13.253906,4.7460938 11.626953,3.9316406 Z M 9.9628906,1 a 1.0001,1.0001 0 0 1 0.082031,0.00195 1.0001,1.0001 0 0 1 0.05664,0.00391 1.0001,1.0001 0 0 1 0.06055,0.00781 1.0001,1.0001 0 0 1 0.08008,0.015625 l 4,1 a 1.0001,1.0001 0 0 1 0.464843,0.2636719 l 3,3 a 1.0001,1.0001 0 0 1 0.263672,0.4648437 l 1,4 A 1.0001,1.0001 0 0 1 19,10 v 3 a 1.0001,1.0001 0 0 1 -0.01953,0.195312 l -1,5 a 1.0001,1.0001 0 0 1 -0.273438,0.511719 l -3,3 a 1.0001,1.0001 0 0 1 -0.464843,0.263672 L 10.371094,22.9375 a 1.0001,1.0001 0 0 1 -0.365235,0.06836 1.0001,1.0001 0 0 1 -0.050781,-0.002 1.0001,1.0001 0 0 1 -0.023437,0 A 1.0001,1.0001 0 0 1 9.6289062,22.9375 L 5.7578125,21.970703 A 1.0001,1.0001 0 0 1 5.2929688,21.707031 l -3,-3 A 1.0001,1.0001 0 0 1 2.0195312,18.195312 l -1,-5 A 1.0001,1.0001 0 0 1 1,13 v -3 a 1.0001,1.0001 0 0 1 0.029297,-0.2421875 l 1,-4 A 1.0001,1.0001 0 0 1 2.2929688,5.2929688 l 3,-3 A 1.0001,1.0001 0 0 1 5.7578125,2.0292969 l 4,-1 a 1.0001,1.0001 0 0 1 0.027344,-0.00586 1.0001,1.0001 0 0 1 0.076172,-0.013672 1.0001,1.0001 0 0 1 0.00195,0 1.0001,1.0001 0 0 1 0.082031,-0.00781 A 1.0001,1.0001 0 0 1 9.9628906,1 Z"
     id="path2" />
</svg>
