<?xml version="1.0" encoding="UTF-8" standalone="no"?>
<svg
   xmlns:dc="http://purl.org/dc/elements/1.1/"
   xmlns:cc="http://creativecommons.org/ns#"
   xmlns:rdf="http://www.w3.org/1999/02/22-rdf-syntax-ns#"
   xmlns:svg="http://www.w3.org/2000/svg"
   xmlns="http://www.w3.org/2000/svg"
   xmlns:sodipodi="http://sodipodi.sourceforge.net/DTD/sodipodi-0.dtd"
   xmlns:inkscape="http://www.inkscape.org/namespaces/inkscape"
   data-dec="96"
   width="12"
   height="40"
   version="1.1"
   id="svg4"
   sodipodi:docname="96.svg"
   inkscape:version="0.92.4 (unknown)">
  <metadata
     id="metadata10">
    <rdf:RDF>
      <cc:Work
         rdf:about="">
        <dc:format>image/svg+xml</dc:format>
        <dc:type
           rdf:resource="http://purl.org/dc/dcmitype/StillImage" />
      </cc:Work>
    </rdf:RDF>
  </metadata>
  <defs
     id="defs8" />
  <sodipodi:namedview
     pagecolor="#ffffff"
     bordercolor="#666666"
     borderopacity="1"
     objecttolerance="10"
     gridtolerance="10"
     guidetolerance="10"
     inkscape:pageopacity="0"
     inkscape:pageshadow="2"
     inkscape:window-width="640"
     inkscape:window-height="480"
     id="namedview6"
     showgrid="false"
     inkscape:zoom="7.3519531"
     inkscape:cx="6"
     inkscape:cy="20"
     inkscape:window-x="0"
     inkscape:window-y="27"
     inkscape:window-maximized="0"
     inkscape:current-layer="svg4" />
  <path
     style="color:#000000;font-style:normal;font-variant:normal;font-weight:normal;font-stretch:normal;font-size:medium;line-height:normal;font-family:sans-serif;font-variant-ligatures:normal;font-variant-position:normal;font-variant-caps:normal;font-variant-numeric:normal;font-variant-alternates:normal;font-feature-settings:normal;text-indent:0;text-align:start;text-decoration:none;text-decoration-line:none;text-decoration-style:solid;text-decoration-color:#000000;letter-spacing:normal;word-spacing:normal;text-transform:none;writing-mode:lr-tb;direction:ltr;text-orientation:mixed;dominant-baseline:auto;baseline-shift:baseline;text-anchor:start;white-space:normal;shape-padding:0;clip-rule:nonzero;display:inline;overflow:visible;visibility:visible;opacity:1;isolation:auto;mix-blend-mode:normal;color-interpolation:sRGB;color-interpolation-filters:linearRGB;solid-color:#000000;solid-opacity:1;vector-effect:none;fill:#000000;fill-opacity:1;fill-rule:nonzero;stroke:none;stroke-width:2;stroke-linecap:round;stroke-linejoin:round;stroke-miterlimit:4;stroke-dasharray:none;stroke-dashoffset:0;stroke-opacity:1;color-rendering:auto;image-rendering:auto;shape-rendering:auto;text-rendering:auto;enable-background:accumulate"
     d="M 3.9804688,-0.01171875 A 1.0001,1.0001 0 0 1 4.0800781,-0.0078125 1.0001,1.0001 0 0 1 4.1464844,0 h 0.7011718 a 1.0001,1.0001 0 0 1 0.515625,0.0625 1.0001,1.0001 0 0 1 0.00781,0.0019531 1.0001,1.0001 0 0 1 0.025391,0.01171875 1.0001,1.0001 0 0 1 0.4648437,0.39648438 l 4.8847659,5.86132815 0.02148,0.025391 a 1.0001,1.0001 0 0 1 0.0957,0.1347656 A 1.0001,1.0001 0 0 1 9.8710938,8 h -0.71875 a 1.0001,1.0001 0 0 1 -0.050781,0.00586 1.0001,1.0001 0 0 1 -0.2949219,-0.017578 1.0001,1.0001 0 0 1 -0.00391,0 1.0001,1.0001 0 0 1 -0.00586,-0.00195 A 1.0001,1.0001 0 0 1 8.6367188,7.9375 1.0001,1.0001 0 0 1 8.6289062,7.9355469 1.0001,1.0001 0 0 1 8.6035156,7.9238281 1.0001,1.0001 0 0 1 8.25,7.6777344 L 2.359375,2.7675781 A 1.0001,1.0001 0 0 1 2.2929688,1.2929688 L 3.1796875,0.40625 a 1.0001,1.0001 0 0 1 0.8007813,-0.41796875 z"
     id="path2" />
</svg>
