<?xml version="1.0" encoding="UTF-8" standalone="no"?>
<svg
   xmlns:dc="http://purl.org/dc/elements/1.1/"
   xmlns:cc="http://creativecommons.org/ns#"
   xmlns:rdf="http://www.w3.org/1999/02/22-rdf-syntax-ns#"
   xmlns:svg="http://www.w3.org/2000/svg"
   xmlns="http://www.w3.org/2000/svg"
   xmlns:sodipodi="http://sodipodi.sourceforge.net/DTD/sodipodi-0.dtd"
   xmlns:inkscape="http://www.inkscape.org/namespaces/inkscape"
   data-dec="99"
   width="18"
   height="40"
   version="1.1"
   id="svg4"
   sodipodi:docname="99.svg"
   inkscape:version="0.92.4 (unknown)">
  <metadata
     id="metadata10">
    <rdf:RDF>
      <cc:Work
         rdf:about="">
        <dc:format>image/svg+xml</dc:format>
        <dc:type
           rdf:resource="http://purl.org/dc/dcmitype/StillImage" />
      </cc:Work>
    </rdf:RDF>
  </metadata>
  <defs
     id="defs8" />
  <sodipodi:namedview
     pagecolor="#ffffff"
     bordercolor="#666666"
     borderopacity="1"
     objecttolerance="10"
     gridtolerance="10"
     guidetolerance="10"
     inkscape:pageopacity="0"
     inkscape:pageshadow="2"
     inkscape:window-width="640"
     inkscape:window-height="480"
     id="namedview6"
     showgrid="false"
     inkscape:zoom="7.3519531"
     inkscape:cx="9"
     inkscape:cy="20"
     inkscape:window-x="0"
     inkscape:window-y="27"
     inkscape:window-maximized="0"
     inkscape:current-layer="svg4" />
  <path
     style="color:#000000;font-style:normal;font-variant:normal;font-weight:normal;font-stretch:normal;font-size:medium;line-height:normal;font-family:sans-serif;font-variant-ligatures:normal;font-variant-position:normal;font-variant-caps:normal;font-variant-numeric:normal;font-variant-alternates:normal;font-feature-settings:normal;text-indent:0;text-align:start;text-decoration:none;text-decoration-line:none;text-decoration-style:solid;text-decoration-color:#000000;letter-spacing:normal;word-spacing:normal;text-transform:none;writing-mode:lr-tb;direction:ltr;text-orientation:mixed;dominant-baseline:auto;baseline-shift:baseline;text-anchor:start;white-space:normal;shape-padding:0;clip-rule:nonzero;display:inline;overflow:visible;visibility:visible;opacity:1;isolation:auto;mix-blend-mode:normal;color-interpolation:sRGB;color-interpolation-filters:linearRGB;solid-color:#000000;solid-opacity:1;vector-effect:none;fill:#000000;fill-opacity:1;fill-rule:nonzero;stroke:none;stroke-width:2;stroke-linecap:round;stroke-linejoin:round;stroke-miterlimit:4;stroke-dasharray:none;stroke-dashoffset:0;stroke-opacity:1;color-rendering:auto;image-rendering:auto;shape-rendering:auto;text-rendering:auto;enable-background:accumulate"
     d="m 8.9804688,6.9902344 a 1.0001,1.0001 0 0 1 0.390625,0.068359 1.0001,1.0001 0 0 1 0.099609,0.042969 l 2.8457029,0.9492187 a 1.0001,1.0001 0 0 1 0.390625,0.2421876 l 2,2.0000002 a 1.0001,1.0001 0 1 1 -1.414062,1.414062 L 11.458984,9.875 9.2695312,9.1445312 7.7773438,10.636719 6,13.302734 v 3.460938 l 0.8222656,1.644531 1.8847656,1.884766 0.5625,0.5625 2.1894528,-0.730469 1.833985,-1.832031 a 1.0001,1.0001 0 1 1 1.414062,1.414062 l -2,2 a 1.0001,1.0001 0 0 1 -0.390625,0.242188 l -2.8535154,0.951172 a 1.0001,1.0001 0 0 1 -0.00586,0.002 1.0001,1.0001 0 0 1 -0.1503906,0.0625 1.0001,1.0001 0 0 1 -0.00195,0 1.0001,1.0001 0 0 1 -0.7070313,-0.04297 L 5.6835938,21.949219 A 1.0001,1.0001 0 0 1 5.2929688,21.707031 L 3.3007812,19.714844 2.2636719,18.722656 A 1.0001,1.0001 0 0 1 1.9550781,17.992188 l 0.044922,-6 a 1.0001,1.0001 0 0 1 0.2929688,-0.699219 l 2,-2.0000002 1,-1 a 1.0001,1.0001 0 0 1 0.390625,-0.2421876 l 2.90625,-0.96875 a 1.0001,1.0001 0 0 1 0.00391,-0.00195 1.0001,1.0001 0 0 1 0.3867188,-0.089844 z"
     id="path2" />
</svg>
