<svg xmlns:dc="http://purl.org/dc/elements/1.1/" xmlns:cc="http://creativecommons.org/ns#" xmlns:rdf="http://www.w3.org/1999/02/22-rdf-syntax-ns#" xmlns:svg="http://www.w3.org/2000/svg" xmlns="http://www.w3.org/2000/svg" xmlns:sodipodi="http://sodipodi.sourceforge.net/DTD/sodipodi-0.dtd" xmlns:inkscape="http://www.inkscape.org/namespaces/inkscape" data-dec="58" id="dec_58" width="12" height="40" version="1.1" sodipodi:docname="58.svg" inkscape:version="0.92.2 5c3e80d, 2017-08-06">
  <metadata id="metadata9">
    <rdf:RDF>
      <cc:Work rdf:about="">
        <dc:format>image/svg+xml</dc:format>
        <dc:type rdf:resource="http://purl.org/dc/dcmitype/StillImage"/>
      </cc:Work>
    </rdf:RDF>
  </metadata>
  <defs id="defs7"/>
  <sodipodi:namedview pagecolor="#ffffff" bordercolor="#666666" borderopacity="1" objecttolerance="10" gridtolerance="10" guidetolerance="10" inkscape:pageopacity="0" inkscape:pageshadow="2" inkscape:window-width="1435" inkscape:window-height="858" id="namedview5" showgrid="true" inkscape:zoom="33.37544" inkscape:cx="-2.8087213" inkscape:cy="24.743176" inkscape:window-x="0" inkscape:window-y="841" inkscape:window-maximized="0" inkscape:current-layer="dec_58">
    <inkscape:grid type="xygrid" id="grid11"/>
  </sodipodi:namedview>
  <path id="path23" style="fill:none;stroke:#000000;stroke-width:1px;stroke-linecap:round;stroke-linejoin:round;stroke-opacity:1" d="m -4,16 z m 9,3 2,2 M 7,19 5,21 M 5,9 7,11 M 7,9 5,11 M 5,8 4,9 v 2 l 1,1 H 7 L 8,11 V 9 L 7,8 H 5 m 0,1 v 2 H 7 V 9 H 5 m 0,9 -1,1 v 2 l 1,1 H 7 L 8,21 V 19 L 7,18 H 5 m 0,1 v 2 H 7 V 19 H 5 "/>
</svg>