<svg xmlns:dc="http://purl.org/dc/elements/1.1/" xmlns:cc="http://creativecommons.org/ns#" xmlns:rdf="http://www.w3.org/1999/02/22-rdf-syntax-ns#" xmlns:svg="http://www.w3.org/2000/svg" xmlns="http://www.w3.org/2000/svg" xmlns:sodipodi="http://sodipodi.sourceforge.net/DTD/sodipodi-0.dtd" xmlns:inkscape="http://www.inkscape.org/namespaces/inkscape" data-dec="59" id="dec_59" width="12" height="40" version="1.1" sodipodi:docname="59.svg" inkscape:version="0.92.2 5c3e80d, 2017-08-06">
  <metadata id="metadata9">
    <rdf:RDF>
      <cc:Work rdf:about="">
        <dc:format>image/svg+xml</dc:format>
        <dc:type rdf:resource="http://purl.org/dc/dcmitype/StillImage"/>
      </cc:Work>
    </rdf:RDF>
  </metadata>
  <defs id="defs7"/>
  <sodipodi:namedview pagecolor="#ffffff" bordercolor="#666666" borderopacity="1" objecttolerance="10" gridtolerance="10" guidetolerance="10" inkscape:pageopacity="0" inkscape:pageshadow="2" inkscape:window-width="1437" inkscape:window-height="855" id="namedview5" showgrid="true" inkscape:zoom="23.6" inkscape:cx="-5.2288136" inkscape:cy="23.072034" inkscape:window-x="0" inkscape:window-y="841" inkscape:window-maximized="0" inkscape:current-layer="dec_59">
    <inkscape:grid type="xygrid" id="grid11"/>
  </sodipodi:namedview>
  <path id="path17" style="fill:none;stroke:#000000;stroke-width:1px;stroke-linecap:round;stroke-linejoin:round;stroke-opacity:1" d="M 7,11 5,9 m 2,0 -2,2 v 0 M 5,21 7,19 M 5,8 4,9 v 2 l 1,1 H 7 L 8,11 V 9 L 7,8 H 5 m 0,1 v 2 H 7 V 9 H 5 M 8,21 7,22 H 5 L 4,21 v -2 l 1,-1 h 2 l 1,1 v 4 L 7,25 5,26 M 8,21 7,25 M 8,23 7,22 v 2 l -2,2 m 0,-7 v 2 H 7 V 19 H 5 l 2,2 v 0 "/>
</svg>