<svg xmlns:dc="http://purl.org/dc/elements/1.1/" xmlns:cc="http://creativecommons.org/ns#" xmlns:rdf="http://www.w3.org/1999/02/22-rdf-syntax-ns#" xmlns:svg="http://www.w3.org/2000/svg" xmlns="http://www.w3.org/2000/svg" xmlns:sodipodi="http://sodipodi.sourceforge.net/DTD/sodipodi-0.dtd" xmlns:inkscape="http://www.inkscape.org/namespaces/inkscape" data-dec="96" id="dec_96" width="12" height="40" version="1.1" sodipodi:docname="96.svg" inkscape:version="0.92.2 5c3e80d, 2017-08-06">
  <metadata id="metadata9">
    <rdf:RDF>
      <cc:Work rdf:about="">
        <dc:format>image/svg+xml</dc:format>
        <dc:type rdf:resource="http://purl.org/dc/dcmitype/StillImage"/>
      </cc:Work>
    </rdf:RDF>
  </metadata>
  <defs id="defs7"/>
  <sodipodi:namedview pagecolor="#ffffff" bordercolor="#666666" borderopacity="1" objecttolerance="10" gridtolerance="10" guidetolerance="10" inkscape:pageopacity="0" inkscape:pageshadow="2" inkscape:window-width="1175" inkscape:window-height="753" id="namedview5" showgrid="true" inkscape:zoom="23.6" inkscape:cx="0.5762712" inkscape:cy="40.084746" inkscape:window-x="0" inkscape:window-y="841" inkscape:window-maximized="0" inkscape:current-layer="dec_96">
    <inkscape:grid type="xygrid" id="grid819"/>
  </sodipodi:namedview>
  <path id="path821" style="fill:none;stroke:#000000;stroke-width:1;stroke-linecap:round;stroke-linejoin:round" d="m 5,1 5,6 M 5,1 H 4 l 6,6 H 9 M 4,1 9,7 M 4,1 3,2 9,7 "/>
</svg>