<?xml version="1.0" encoding="UTF-8"?>
<glyph name="p" format="1">
  <advance width="433"/>
  <unicode hex="0070"/>
  <outline>
    <contour>
      <point x="145" y="405" type="line"/>
      <point x="145" y="87" type="line"/>
      <point x="220" y="87" type="line"/>
      <point x="264" y="131" type="line"/>
      <point x="289" y="207" type="line"/>
      <point x="289" y="311" type="line"/>
      <point x="266" y="359" type="line"/>
      <point x="220" y="405" type="line"/>
    </contour>
    <contour>
      <point x="87" y="463" type="line"/>
      <point x="91" y="463" type="line"/>
      <point x="116" y="463" type="line"/>
      <point x="229" y="463" type="line"/>
      <point x="231" y="463" type="line" smooth="yes"/>
      <point x="233" y="463"/>
      <point x="239" y="462"/>
      <point x="241" y="461" type="curve" smooth="yes"/>
      <point x="242" y="461" type="line"/>
      <point x="328" y="432" type="line" smooth="yes"/>
      <point x="334" y="430"/>
      <point x="339" y="425"/>
      <point x="342" y="421" type="curve" smooth="yes"/>
      <point x="400" y="334" type="line" smooth="yes"/>
      <point x="402" y="330"/>
      <point x="405" y="322"/>
      <point x="405" y="318" type="curve" smooth="yes"/>
      <point x="405" y="173" type="line" smooth="yes"/>
      <point x="405" y="170"/>
      <point x="405" y="164"/>
      <point x="403" y="161" type="curve" smooth="yes"/>
      <point x="373" y="102" type="line" smooth="yes"/>
      <point x="372" y="100"/>
      <point x="369" y="97"/>
      <point x="367" y="95" type="curve" smooth="yes"/>
      <point x="310" y="37" type="line" smooth="yes"/>
      <point x="306" y="33"/>
      <point x="296" y="29"/>
      <point x="289" y="29" type="curve" smooth="yes"/>
      <point x="234" y="29" type="line"/>
      <point x="231" y="29" type="line"/>
      <point x="228" y="29" type="line"/>
      <point x="145" y="29" type="line"/>
      <point x="145" y="-174" type="line" smooth="yes"/>
      <point x="145" y="-190"/>
      <point x="132" y="-204"/>
      <point x="116" y="-204" type="curve" smooth="yes"/>
      <point x="91" y="-204" type="line"/>
      <point x="87" y="-204" type="line"/>
      <point x="82" y="-204" type="line"/>
      <point x="58" y="-204" type="line" smooth="yes"/>
      <point x="42" y="-204"/>
      <point x="29" y="-190"/>
      <point x="29" y="-174" type="curve" smooth="yes"/>
      <point x="29" y="433" type="line" smooth="yes"/>
      <point x="29" y="449"/>
      <point x="42" y="463"/>
      <point x="58" y="463" type="curve" smooth="yes"/>
      <point x="82" y="463" type="line"/>
    </contour>
  </outline>
  <lib>
    <dict>
      <key>com.fontlab.hintData</key>
      <dict>
        <key>hhints</key>
        <array>
          <dict>
            <key>position</key>
            <integer>-204</integer>
            <key>width</key>
            <integer>23</integer>
          </dict>
          <dict>
            <key>position</key>
            <integer>29</integer>
            <key>width</key>
            <integer>58</integer>
          </dict>
          <dict>
            <key>position</key>
            <integer>405</integer>
            <key>width</key>
            <integer>58</integer>
          </dict>
        </array>
        <key>vhints</key>
        <array>
          <dict>
            <key>position</key>
            <integer>29</integer>
            <key>width</key>
            <integer>117</integer>
          </dict>
          <dict>
            <key>position</key>
            <integer>289</integer>
            <key>width</key>
            <integer>116</integer>
          </dict>
        </array>
      </dict>
    </dict>
  </lib>
</glyph>
