<?xml version="1.0" encoding="UTF-8"?>
<glyph name="percent" format="1">
  <advance width="752"/>
  <unicode hex="0025"/>
  <outline>
    <contour>
      <point x="463" y="217" type="line"/>
      <point x="462" y="177" type="line"/>
      <point x="463" y="176" type="line"/>
    </contour>
    <contour>
      <point x="693" y="254" type="line"/>
      <point x="693" y="173" type="line" smooth="yes"/>
      <point x="693" y="171"/>
      <point x="693" y="166"/>
      <point x="692" y="164" type="curve" smooth="yes"/>
      <point x="686" y="147" type="line"/>
      <point x="696" y="173" type="line"/>
      <point x="694" y="253" type="line"/>
    </contour>
    <contour>
      <point x="564" y="346" type="line"/>
      <point x="520" y="278" type="line"/>
      <point x="521" y="152" type="line"/>
      <point x="544" y="102" type="line"/>
      <point x="566" y="57" type="line"/>
      <point x="590" y="57" type="line"/>
      <point x="610" y="96" type="line"/>
      <point x="636" y="177" type="line"/>
      <point x="636" y="280" type="line"/>
      <point x="591" y="346" type="line"/>
      <point x="568" y="346" type="line"/>
    </contour>
    <contour>
      <point x="606" y="405" type="line" smooth="yes"/>
      <point x="610" y="405"/>
      <point x="619" y="402"/>
      <point x="623" y="400" type="curve" smooth="yes"/>
      <point x="710" y="342" type="line" smooth="yes"/>
      <point x="713" y="340"/>
      <point x="717" y="334"/>
      <point x="719" y="331" type="curve" smooth="yes"/>
      <point x="749" y="274" type="line" smooth="yes"/>
      <point x="750" y="271"/>
      <point x="751" y="265"/>
      <point x="751" y="262" type="curve" smooth="yes"/>
      <point x="755" y="169" type="line"/>
      <point x="755" y="168" type="line" smooth="yes"/>
      <point x="755" y="165"/>
      <point x="753" y="160"/>
      <point x="752" y="158" type="curve" smooth="yes"/>
      <point x="722" y="75" type="line" smooth="yes"/>
      <point x="720" y="69"/>
      <point x="715" y="63"/>
      <point x="711" y="60" type="curve" smooth="yes"/>
      <point x="623" y="4" type="line" smooth="yes"/>
      <point x="621" y="3"/>
      <point x="617" y="2"/>
      <point x="615" y="1" type="curve" smooth="yes"/>
      <point x="613" y="0"/>
      <point x="609" y="0"/>
      <point x="607" y="0" type="curve" smooth="yes"/>
      <point x="549" y="0" type="line" smooth="yes"/>
      <point x="545" y="0"/>
      <point x="536" y="1"/>
      <point x="532" y="4" type="curve" smooth="yes"/>
      <point x="447" y="64" type="line" smooth="yes"/>
      <point x="443" y="67"/>
      <point x="438" y="74"/>
      <point x="436" y="78" type="curve" smooth="yes"/>
      <point x="406" y="163" type="line" smooth="yes"/>
      <point x="405" y="165"/>
      <point x="405" y="171"/>
      <point x="405" y="173" type="curve" smooth="yes"/>
      <point x="405" y="258" type="line" smooth="yes"/>
      <point x="405" y="261"/>
      <point x="406" y="267"/>
      <point x="407" y="270" type="curve" smooth="yes"/>
      <point x="432" y="327" type="line" smooth="yes"/>
      <point x="434" y="331"/>
      <point x="438" y="337"/>
      <point x="442" y="339" type="curve" smooth="yes"/>
      <point x="530" y="398" type="line" smooth="yes"/>
      <point x="534" y="401"/>
      <point x="543" y="405"/>
      <point x="549" y="405" type="curve" smooth="yes"/>
      <point x="572" y="405" type="line"/>
    </contour>
    <contour>
      <point x="58" y="478" type="line"/>
      <point x="58" y="438" type="line"/>
      <point x="58" y="436" type="line"/>
    </contour>
    <contour>
      <point x="289" y="515" type="line"/>
      <point x="289" y="432" type="line" smooth="yes"/>
      <point x="289" y="430"/>
      <point x="289" y="427"/>
      <point x="288" y="425" type="curve" smooth="yes"/>
      <point x="283" y="407" type="line"/>
      <point x="293" y="433" type="line"/>
      <point x="290" y="514" type="line"/>
    </contour>
    <contour>
      <point x="166" y="607" type="line"/>
      <point x="161" y="607" type="line"/>
      <point x="116" y="538" type="line"/>
      <point x="117" y="412" type="line"/>
      <point x="140" y="363" type="line"/>
      <point x="163" y="318" type="line"/>
      <point x="186" y="318" type="line"/>
      <point x="207" y="355" type="line"/>
      <point x="231" y="437" type="line"/>
      <point x="231" y="540" type="line"/>
      <point x="187" y="607" type="line"/>
    </contour>
    <contour>
      <point x="521" y="664" type="line" smooth="yes"/>
      <point x="536" y="664"/>
      <point x="549" y="651"/>
      <point x="549" y="636" type="curve" smooth="yes"/>
      <point x="549" y="633"/>
      <point x="549" y="626"/>
      <point x="547" y="623" type="curve" smooth="yes"/>
      <point x="254" y="16" type="line" smooth="yes"/>
      <point x="250" y="6"/>
      <point x="239" y="-1"/>
      <point x="228" y="-1" type="curve" smooth="yes"/>
      <point x="212" y="-1"/>
      <point x="199" y="13"/>
      <point x="199" y="29" type="curve" smooth="yes"/>
      <point x="199" y="33"/>
      <point x="200" y="39"/>
      <point x="202" y="42" type="curve" smooth="yes"/>
      <point x="494" y="648" type="line" smooth="yes"/>
      <point x="498" y="657"/>
      <point x="510" y="664"/>
      <point x="520" y="664" type="curve" smooth="yes"/>
    </contour>
    <contour>
      <point x="202" y="666" type="line" smooth="yes"/>
      <point x="206" y="666"/>
      <point x="215" y="662"/>
      <point x="219" y="660" type="curve" smooth="yes"/>
      <point x="306" y="603" type="line" smooth="yes"/>
      <point x="309" y="601"/>
      <point x="314" y="595"/>
      <point x="316" y="592" type="curve" smooth="yes"/>
      <point x="344" y="534" type="line" smooth="yes"/>
      <point x="345" y="531"/>
      <point x="348" y="524"/>
      <point x="348" y="521" type="curve" smooth="yes"/>
      <point x="350" y="429" type="line"/>
      <point x="350" y="428" type="line" smooth="yes"/>
      <point x="350" y="425"/>
      <point x="350" y="420"/>
      <point x="349" y="418" type="curve" smooth="yes"/>
      <point x="318" y="336" type="line" smooth="yes"/>
      <point x="316" y="330"/>
      <point x="311" y="324"/>
      <point x="307" y="321" type="curve" smooth="yes"/>
      <point x="219" y="265" type="line"/>
      <point x="218" y="264" type="line" smooth="yes"/>
      <point x="214" y="262"/>
      <point x="206" y="260"/>
      <point x="202" y="260" type="curve" smooth="yes"/>
      <point x="145" y="260" type="line"/>
      <point x="144" y="260" type="line"/>
      <point x="142" y="260" type="line"/>
      <point x="141" y="261" type="line" smooth="yes"/>
      <point x="140" y="261"/>
      <point x="137" y="262"/>
      <point x="136" y="262" type="curve" smooth="yes"/>
      <point x="133" y="262" type="line" smooth="yes"/>
      <point x="132" y="262"/>
      <point x="132" y="264"/>
      <point x="131" y="264" type="curve" smooth="yes"/>
      <point x="130" y="264"/>
      <point x="130" y="265"/>
      <point x="129" y="265" type="curve" smooth="yes"/>
      <point x="43" y="323" type="line" smooth="yes"/>
      <point x="39" y="326"/>
      <point x="34" y="334"/>
      <point x="32" y="338" type="curve" smooth="yes"/>
      <point x="2" y="424" type="line" smooth="yes"/>
      <point x="1" y="426"/>
      <point x="0" y="430"/>
      <point x="0" y="432" type="curve" smooth="yes"/>
      <point x="0" y="433" type="line"/>
      <point x="1" y="519" type="line" smooth="yes"/>
      <point x="1" y="522"/>
      <point x="2" y="527"/>
      <point x="3" y="530" type="curve" smooth="yes"/>
      <point x="28" y="586" type="line" smooth="yes"/>
      <point x="30" y="590"/>
      <point x="34" y="598"/>
      <point x="38" y="600" type="curve" smooth="yes"/>
      <point x="125" y="658" type="line" smooth="yes"/>
      <point x="129" y="661"/>
      <point x="139" y="666"/>
      <point x="145" y="666" type="curve" smooth="yes"/>
      <point x="164" y="666" type="line"/>
    </contour>
  </outline>
  <lib>
    <dict>
      <key>com.fontlab.hintData</key>
      <dict>
        <key>hhints</key>
        <array>
          <dict>
            <key>position</key>
            <integer>0</integer>
            <key>width</key>
            <integer>57</integer>
          </dict>
          <dict>
            <key>position</key>
            <integer>260</integer>
            <key>width</key>
            <integer>58</integer>
          </dict>
          <dict>
            <key>position</key>
            <integer>346</integer>
            <key>width</key>
            <integer>58</integer>
          </dict>
          <dict>
            <key>position</key>
            <integer>607</integer>
            <key>width</key>
            <integer>58</integer>
          </dict>
        </array>
        <key>vhints</key>
        <array>
          <dict>
            <key>position</key>
            <integer>0</integer>
            <key>width</key>
            <integer>58</integer>
          </dict>
          <dict>
            <key>position</key>
            <integer>58</integer>
            <key>width</key>
            <integer>58</integer>
          </dict>
          <dict>
            <key>position</key>
            <integer>199</integer>
            <key>width</key>
            <integer>55</integer>
          </dict>
          <dict>
            <key>position</key>
            <integer>231</integer>
            <key>width</key>
            <integer>58</integer>
          </dict>
          <dict>
            <key>position</key>
            <integer>293</integer>
            <key>width</key>
            <integer>57</integer>
          </dict>
          <dict>
            <key>position</key>
            <integer>405</integer>
            <key>width</key>
            <integer>57</integer>
          </dict>
          <dict>
            <key>position</key>
            <integer>463</integer>
            <key>width</key>
            <integer>58</integer>
          </dict>
          <dict>
            <key>position</key>
            <integer>494</integer>
            <key>width</key>
            <integer>55</integer>
          </dict>
          <dict>
            <key>position</key>
            <integer>636</integer>
            <key>width</key>
            <integer>57</integer>
          </dict>
          <dict>
            <key>position</key>
            <integer>696</integer>
            <key>width</key>
            <integer>58</integer>
          </dict>
        </array>
      </dict>
    </dict>
  </lib>
</glyph>
