<?xml version="1.0" encoding="UTF-8"?>
<glyph name="iacute" format="1">
  <advance width="231"/>
  <unicode hex="00ED"/>
  <outline>
    <contour>
      <point x="120" y="405" type="line"/>
      <point x="120" y="9" type="line"/>
      <point x="141" y="9" type="line"/>
      <point x="141" y="405" type="line"/>
    </contour>
    <contour>
      <point x="91" y="405" type="line"/>
      <point x="91" y="9" type="line"/>
      <point x="111" y="9" type="line"/>
      <point x="111" y="405" type="line"/>
    </contour>
    <contour>
      <point x="116" y="414" type="line"/>
      <point x="117" y="414" type="line"/>
      <point x="145" y="414" type="line" smooth="yes"/>
      <point x="147" y="414"/>
      <point x="150" y="411"/>
      <point x="150" y="409" type="curve" smooth="yes"/>
      <point x="150" y="4" type="line" smooth="yes"/>
      <point x="150" y="2"/>
      <point x="147" y="0"/>
      <point x="145" y="0" type="curve" smooth="yes"/>
      <point x="117" y="0" type="line"/>
      <point x="116" y="0" type="line"/>
      <point x="87" y="0" type="line" smooth="yes"/>
      <point x="85" y="0"/>
      <point x="82" y="2"/>
      <point x="82" y="4" type="curve" smooth="yes"/>
      <point x="82" y="409" type="line" smooth="yes"/>
      <point x="82" y="411"/>
      <point x="85" y="414"/>
      <point x="87" y="414" type="curve" smooth="yes"/>
    </contour>
    <component base="acute" xOffset="-72" yOffset="58"/>
  </outline>
  <lib>
    <dict>
      <key>com.fontlab.hintData</key>
      <dict>
        <key>hhints</key>
        <array>
          <dict>
            <key>position</key>
            <integer>0</integer>
            <key>width</key>
            <integer>9</integer>
          </dict>
          <dict>
            <key>position</key>
            <integer>405</integer>
            <key>width</key>
            <integer>9</integer>
          </dict>
          <dict>
            <key>position</key>
            <integer>550</integer>
            <key>width</key>
            <integer>9</integer>
          </dict>
          <dict>
            <key>position</key>
            <integer>565</integer>
            <key>width</key>
            <integer>22</integer>
          </dict>
          <dict>
            <key>position</key>
            <integer>594</integer>
            <key>width</key>
            <integer>22</integer>
          </dict>
          <dict>
            <key>position</key>
            <integer>674</integer>
            <key>width</key>
            <integer>9</integer>
          </dict>
          <dict>
            <key>position</key>
            <integer>848</integer>
            <key>width</key>
            <integer>8</integer>
          </dict>
        </array>
        <key>vhints</key>
        <array>
          <dict>
            <key>position</key>
            <integer>-29</integer>
            <key>width</key>
            <integer>9</integer>
          </dict>
          <dict>
            <key>position</key>
            <integer>0</integer>
            <key>width</key>
            <integer>9</integer>
          </dict>
          <dict>
            <key>position</key>
            <integer>30</integer>
            <key>width</key>
            <integer>9</integer>
          </dict>
          <dict>
            <key>position</key>
            <integer>88</integer>
            <key>width</key>
            <integer>209</integer>
          </dict>
        </array>
      </dict>
    </dict>
  </lib>
</glyph>
