<?xml version="1.0" encoding="UTF-8"?>
<glyph name="Q" format="1">
  <advance width="578"/>
  <unicode hex="0051"/>
  <outline>
    <contour>
      <point x="315" y="6" type="line"/>
      <point x="294" y="1" type="line"/>
      <point x="294" y="-78" type="line"/>
      <point x="315" y="-78" type="line"/>
    </contour>
    <contour>
      <point x="265" y="6" type="line"/>
      <point x="265" y="-78" type="line"/>
      <point x="285" y="-78" type="line"/>
      <point x="285" y="1" type="line"/>
    </contour>
    <contour>
      <point x="294" y="145" type="line"/>
      <point x="294" y="11" type="line"/>
      <point x="315" y="21" type="line"/>
      <point x="315" y="145" type="line"/>
    </contour>
    <contour>
      <point x="265" y="145" type="line"/>
      <point x="265" y="21" type="line"/>
      <point x="285" y="11" type="line"/>
      <point x="285" y="145" type="line"/>
    </contour>
    <contour>
      <point x="439" y="468" type="line"/>
      <point x="468" y="353" type="line"/>
      <point x="468" y="352" type="line"/>
      <point x="468" y="235" type="line"/>
      <point x="468" y="234" type="line"/>
      <point x="439" y="119" type="line"/>
      <point x="438" y="118" type="line"/>
      <point x="421" y="85" type="line"/>
      <point x="459" y="122" type="line"/>
      <point x="487" y="265" type="line"/>
      <point x="487" y="351" type="line"/>
      <point x="459" y="437" type="line"/>
    </contour>
    <contour>
      <point x="140" y="468" type="line"/>
      <point x="120" y="437" type="line"/>
      <point x="91" y="351" type="line"/>
      <point x="91" y="265" type="line"/>
      <point x="120" y="122" type="line"/>
      <point x="158" y="85" type="line"/>
      <point x="141" y="118" type="line"/>
      <point x="141" y="119" type="line"/>
      <point x="111" y="234" type="line"/>
      <point x="111" y="235" type="line"/>
      <point x="111" y="352" type="line"/>
      <point x="111" y="353" type="line"/>
    </contour>
    <contour>
      <point x="327" y="570" type="line"/>
      <point x="407" y="529" type="line"/>
      <point x="408" y="529" type="line"/>
      <point x="408" y="528" type="line"/>
      <point x="409" y="528" type="line"/>
      <point x="466" y="441" type="line"/>
      <point x="468" y="440" type="line"/>
      <point x="496" y="353" type="line"/>
      <point x="496" y="352" type="line"/>
      <point x="496" y="265" type="line"/>
      <point x="496" y="264" type="line"/>
      <point x="468" y="119" type="line" smooth="yes"/>
      <point x="468" y="118"/>
      <point x="466" y="117" type="line"/>
      <point x="409" y="59" type="line"/>
      <point x="408" y="59" type="line"/>
      <point x="408" y="58" type="line"/>
      <point x="407" y="58" type="line"/>
      <point x="327" y="18" type="line"/>
      <point x="403" y="37" type="line"/>
      <point x="488" y="122" type="line"/>
      <point x="517" y="265" type="line"/>
      <point x="517" y="351" type="line"/>
      <point x="488" y="465" type="line"/>
      <point x="403" y="550" type="line"/>
    </contour>
    <contour>
      <point x="252" y="570" type="line"/>
      <point x="176" y="550" type="line"/>
      <point x="90" y="465" type="line"/>
      <point x="63" y="351" type="line"/>
      <point x="63" y="265" type="line"/>
      <point x="91" y="122" type="line"/>
      <point x="176" y="37" type="line"/>
      <point x="252" y="18" type="line"/>
      <point x="172" y="58" type="line"/>
      <point x="170" y="58" type="line"/>
      <point x="170" y="59" type="line"/>
      <point x="112" y="117" type="line"/>
      <point x="111" y="118"/>
      <point x="111" y="119" type="curve" smooth="yes"/>
      <point x="82" y="264" type="line"/>
      <point x="82" y="265" type="line"/>
      <point x="82" y="352" type="line"/>
      <point x="82" y="353" type="line"/>
      <point x="112" y="440" type="line"/>
      <point x="112" y="441" type="line"/>
      <point x="170" y="528" type="line"/>
      <point x="172" y="529" type="line"/>
    </contour>
    <contour>
      <point x="289" y="579" type="line"/>
      <point x="177" y="522" type="line"/>
      <point x="148" y="466" type="line"/>
      <point x="120" y="351" type="line"/>
      <point x="120" y="236" type="line"/>
      <point x="148" y="122" type="line"/>
      <point x="177" y="65" type="line"/>
      <point x="256" y="25" type="line"/>
      <point x="256" y="148" type="line" smooth="yes"/>
      <point x="256" y="150"/>
      <point x="259" y="153"/>
      <point x="261" y="153" type="curve" smooth="yes"/>
      <point x="289" y="153" type="line"/>
      <point x="290" y="153" type="line"/>
      <point x="318" y="153" type="line" smooth="yes"/>
      <point x="320" y="153"/>
      <point x="322" y="150"/>
      <point x="322" y="148" type="curve" smooth="yes"/>
      <point x="322" y="25" type="line"/>
      <point x="402" y="65" type="line"/>
      <point x="430" y="122" type="line"/>
      <point x="459" y="236" type="line"/>
      <point x="459" y="351" type="line"/>
      <point x="430" y="466" type="line"/>
      <point x="403" y="522" type="line"/>
    </contour>
    <contour>
      <point x="289" y="587" type="line"/>
      <point x="290" y="587" type="line"/>
      <point x="406" y="559" type="line" smooth="yes"/>
      <point x="407" y="559"/>
      <point x="408" y="558" type="line"/>
      <point x="495" y="471" type="line"/>
      <point x="496" y="470"/>
      <point x="496" y="469" type="curve" smooth="yes"/>
      <point x="526" y="353" type="line"/>
      <point x="526" y="352" type="line"/>
      <point x="526" y="265" type="line"/>
      <point x="526" y="264" type="line"/>
      <point x="496" y="119" type="line" smooth="yes"/>
      <point x="496" y="118"/>
      <point x="495" y="117" type="line"/>
      <point x="408" y="30" type="line"/>
      <point x="407" y="29"/>
      <point x="406" y="29" type="curve" smooth="yes"/>
      <point x="322" y="8" type="line"/>
      <point x="322" y="-82" type="line" smooth="yes"/>
      <point x="322" y="-84"/>
      <point x="320" y="-87"/>
      <point x="318" y="-87" type="curve" smooth="yes"/>
      <point x="290" y="-87" type="line"/>
      <point x="289" y="-87" type="line"/>
      <point x="288" y="-87" type="line"/>
      <point x="261" y="-87" type="line" smooth="yes"/>
      <point x="259" y="-87"/>
      <point x="256" y="-84"/>
      <point x="256" y="-82" type="curve" smooth="yes"/>
      <point x="256" y="8" type="line"/>
      <point x="173" y="29" type="line" smooth="yes"/>
      <point x="172" y="29"/>
      <point x="170" y="30" type="line"/>
      <point x="84" y="117" type="line"/>
      <point x="82" y="118"/>
      <point x="82" y="119" type="curve" smooth="yes"/>
      <point x="54" y="264" type="line"/>
      <point x="54" y="265" type="line"/>
      <point x="54" y="352" type="line"/>
      <point x="54" y="353" type="line"/>
      <point x="82" y="469" type="line" smooth="yes"/>
      <point x="82" y="470"/>
      <point x="84" y="471" type="line"/>
      <point x="170" y="558" type="line"/>
      <point x="172" y="559"/>
      <point x="173" y="559" type="curve" smooth="yes"/>
      <point x="288" y="587" type="line"/>
    </contour>
  </outline>
  <lib>
    <dict>
      <key>com.fontlab.hintData</key>
      <dict>
        <key>hhints</key>
        <array>
          <dict>
            <key>position</key>
            <integer>-87</integer>
            <key>width</key>
            <integer>9</integer>
          </dict>
          <dict>
            <key>position</key>
            <integer>145</integer>
            <key>width</key>
            <integer>8</integer>
          </dict>
          <dict>
            <key>position</key>
            <integer>565</integer>
            <key>width</key>
            <integer>22</integer>
          </dict>
        </array>
        <key>vhints</key>
        <array>
          <dict>
            <key>position</key>
            <integer>54</integer>
            <key>width</key>
            <integer>9</integer>
          </dict>
          <dict>
            <key>position</key>
            <integer>82</integer>
            <key>width</key>
            <integer>9</integer>
          </dict>
          <dict>
            <key>position</key>
            <integer>111</integer>
            <key>width</key>
            <integer>9</integer>
          </dict>
          <dict>
            <key>position</key>
            <integer>256</integer>
            <key>width</key>
            <integer>9</integer>
          </dict>
          <dict>
            <key>position</key>
            <integer>285</integer>
            <key>width</key>
            <integer>9</integer>
          </dict>
          <dict>
            <key>position</key>
            <integer>315</integer>
            <key>width</key>
            <integer>8</integer>
          </dict>
          <dict>
            <key>position</key>
            <integer>459</integer>
            <key>width</key>
            <integer>9</integer>
          </dict>
          <dict>
            <key>position</key>
            <integer>487</integer>
            <key>width</key>
            <integer>9</integer>
          </dict>
          <dict>
            <key>position</key>
            <integer>517</integer>
            <key>width</key>
            <integer>9</integer>
          </dict>
        </array>
      </dict>
    </dict>
  </lib>
</glyph>
