<?xml version="1.0" encoding="UTF-8" standalone="no"?>
<svg
   xmlns:dc="http://purl.org/dc/elements/1.1/"
   xmlns:cc="http://creativecommons.org/ns#"
   xmlns:rdf="http://www.w3.org/1999/02/22-rdf-syntax-ns#"
   xmlns:svg="http://www.w3.org/2000/svg"
   xmlns="http://www.w3.org/2000/svg"
   xmlns:sodipodi="http://sodipodi.sourceforge.net/DTD/sodipodi-0.dtd"
   xmlns:inkscape="http://www.inkscape.org/namespaces/inkscape"
   data-dec="102"
   width="9"
   height="40"
   version="1.1"
   id="svg4"
   sodipodi:docname="102.svg"
   inkscape:version="0.92.4 (unknown)">
  <metadata
     id="metadata10">
    <rdf:RDF>
      <cc:Work
         rdf:about="">
        <dc:format>image/svg+xml</dc:format>
        <dc:type
           rdf:resource="http://purl.org/dc/dcmitype/StillImage" />
      </cc:Work>
    </rdf:RDF>
  </metadata>
  <defs
     id="defs8" />
  <sodipodi:namedview
     pagecolor="#ffffff"
     bordercolor="#666666"
     borderopacity="1"
     objecttolerance="10"
     gridtolerance="10"
     guidetolerance="10"
     inkscape:pageopacity="0"
     inkscape:pageshadow="2"
     inkscape:window-width="640"
     inkscape:window-height="480"
     id="namedview6"
     showgrid="false"
     inkscape:zoom="7.3519531"
     inkscape:cx="4.5"
     inkscape:cy="20"
     inkscape:window-x="0"
     inkscape:window-y="27"
     inkscape:window-maximized="0"
     inkscape:current-layer="svg4" />
  <path
     style="color:#000000;font-style:normal;font-variant:normal;font-weight:normal;font-stretch:normal;font-size:medium;line-height:normal;font-family:sans-serif;font-variant-ligatures:normal;font-variant-position:normal;font-variant-caps:normal;font-variant-numeric:normal;font-variant-alternates:normal;font-feature-settings:normal;text-indent:0;text-align:start;text-decoration:none;text-decoration-line:none;text-decoration-style:solid;text-decoration-color:#000000;letter-spacing:normal;word-spacing:normal;text-transform:none;writing-mode:lr-tb;direction:ltr;text-orientation:mixed;dominant-baseline:auto;baseline-shift:baseline;text-anchor:start;white-space:normal;shape-padding:0;clip-rule:nonzero;display:inline;overflow:visible;visibility:visible;opacity:1;isolation:auto;mix-blend-mode:normal;color-interpolation:sRGB;color-interpolation-filters:linearRGB;solid-color:#000000;solid-opacity:1;vector-effect:none;fill:#000000;fill-opacity:1;fill-rule:nonzero;stroke:none;stroke-width:0.30000001;stroke-linecap:round;stroke-linejoin:round;stroke-miterlimit:4;stroke-dasharray:none;stroke-dashoffset:0;stroke-opacity:1;color-rendering:auto;image-rendering:auto;shape-rendering:auto;text-rendering:auto;enable-background:accumulate"
     d="M 4.453125,1.7578125 4.1230469,2.0878906 3.1503906,4.0351562 V 21.849609 H 3.8496094 V 10.017578 a 0.15001501,0.15001501 0 0 1 0,-0.044922 V 3 a 0.15001501,0.15001501 0 0 1 0.015625,-0.066406 z M 4.2421875,1.546875 3.1113281,2.1113281 2.1503906,4.0351562 V 21.849609 H 2.8496094 V 4 a 0.15001501,0.15001501 0 0 1 0.015625,-0.066406 l 1,-2 a 0.15001501,0.15001501 0 0 1 0.029297,-0.039063 z M 4.9902344,0.84960938 a 0.15001501,0.15001501 0 0 1 0.00977,0 0.15001501,0.15001501 0 0 1 0.00586,0 H 8 A 0.15039061,0.15039061 0 1 1 8,1.1503906 H 5.09375 L 4.1503906,3.0351562 V 9.8496094 H 8 A 0.1503908,0.1503908 0 0 1 8,10.150391 H 4.1503906 V 22 A 0.15001501,0.15001501 0 0 1 4,22.150391 H 3.0175781 a 0.15001501,0.15001501 0 0 1 -0.044922,0 H 2 A 0.15001501,0.15001501 0 0 1 1.8496094,22 V 4 a 0.15001501,0.15001501 0 0 1 0.015625,-0.066406 l 1,-2 a 0.15001501,0.15001501 0 0 1 0.068359,-0.068359 L 4.9199219,0.87304688 a 0.15001501,0.15001501 0 0 1 0.021484,-0.0117188 0.15001501,0.15001501 0 0 1 0.00391,-0.001953 0.15001501,0.15001501 0 0 1 0.00977,-0.001953 0.15001501,0.15001501 0 0 1 0.00586,-0.001953 0.15001501,0.15001501 0 0 1 0.00977,-0.001953 0.15001501,0.15001501 0 0 1 0.019531,-0.003906 z"
     id="path2" />
</svg>
