<?xml version="1.0" encoding="UTF-8" standalone="no"?>
<svg
   xmlns:dc="http://purl.org/dc/elements/1.1/"
   xmlns:cc="http://creativecommons.org/ns#"
   xmlns:rdf="http://www.w3.org/1999/02/22-rdf-syntax-ns#"
   xmlns:svg="http://www.w3.org/2000/svg"
   xmlns="http://www.w3.org/2000/svg"
   xmlns:sodipodi="http://sodipodi.sourceforge.net/DTD/sodipodi-0.dtd"
   xmlns:inkscape="http://www.inkscape.org/namespaces/inkscape"
   data-dec="113"
   width="16"
   height="40"
   version="1.1"
   id="svg4"
   sodipodi:docname="113.svg"
   inkscape:version="0.92.4 (unknown)">
  <metadata
     id="metadata10">
    <rdf:RDF>
      <cc:Work
         rdf:about="">
        <dc:format>image/svg+xml</dc:format>
        <dc:type
           rdf:resource="http://purl.org/dc/dcmitype/StillImage" />
      </cc:Work>
    </rdf:RDF>
  </metadata>
  <defs
     id="defs8" />
  <sodipodi:namedview
     pagecolor="#ffffff"
     bordercolor="#666666"
     borderopacity="1"
     objecttolerance="10"
     gridtolerance="10"
     guidetolerance="10"
     inkscape:pageopacity="0"
     inkscape:pageshadow="2"
     inkscape:window-width="640"
     inkscape:window-height="480"
     id="namedview6"
     showgrid="false"
     inkscape:zoom="7.3519531"
     inkscape:cx="8"
     inkscape:cy="20"
     inkscape:window-x="0"
     inkscape:window-y="27"
     inkscape:window-maximized="0"
     inkscape:current-layer="svg4" />
  <path
     style="color:#000000;font-style:normal;font-variant:normal;font-weight:normal;font-stretch:normal;font-size:medium;line-height:normal;font-family:sans-serif;font-variant-ligatures:normal;font-variant-position:normal;font-variant-caps:normal;font-variant-numeric:normal;font-variant-alternates:normal;font-feature-settings:normal;text-indent:0;text-align:start;text-decoration:none;text-decoration-line:none;text-decoration-style:solid;text-decoration-color:#000000;letter-spacing:normal;word-spacing:normal;text-transform:none;writing-mode:lr-tb;direction:ltr;text-orientation:mixed;dominant-baseline:auto;baseline-shift:baseline;text-anchor:start;white-space:normal;shape-padding:0;clip-rule:nonzero;display:inline;overflow:visible;visibility:visible;opacity:1;isolation:auto;mix-blend-mode:normal;color-interpolation:sRGB;color-interpolation-filters:linearRGB;solid-color:#000000;solid-opacity:1;vector-effect:none;fill:#000000;fill-opacity:1;fill-rule:nonzero;stroke:none;stroke-width:0.30000001;stroke-linecap:round;stroke-linejoin:round;stroke-miterlimit:4;stroke-dasharray:none;stroke-dashoffset:0;stroke-opacity:1;color-rendering:auto;image-rendering:auto;shape-rendering:auto;text-rendering:auto;enable-background:accumulate"
     d="m 8.8496094,21.875 -0.6992188,0.232422 v 3.742187 h 0.6992188 z m -1.6992188,0 v 3.974609 h 0.6992188 v -3.742187 z m 1.6992188,-0.513672 -0.091797,0.0918 0.091797,-0.04492 z m -1.6992188,0 v 0.04687 l 0.091797,0.04492 z m 1,-3.210937 v 3.488281 l 0.6992188,-0.699219 v -2.789062 z m -1,0 v 2.789062 l 0.6992188,0.699219 v -3.488281 z m 2.8046875,-9.3417972 0.1113279,0.056641 a 0.15001501,0.15001501 0 0 1 0.03906,0.029297 l 1,1 1,0.9999998 a 0.15001501,0.15001501 0 0 1 0.04101,0.06836 l 1,4 a 0.15001501,0.15001501 0 0 1 0,0.07422 l -1,4 a 0.15001501,0.15001501 0 0 1 -0.04101,0.06836 l -1,1 -1,1 a 0.15001501,0.15001501 0 0 1 -0.03906,0.0293 l -0.1113279,0.05664 0.9648439,-0.322265 1.949219,-1.949219 0.980468,-2.94336 v -1.953124 l -0.980468,-2.94336 -1.949219,-1.9492186 z m -3.9101562,0 -0.9648438,0.3222656 -1.9492187,1.9492186 -0.9804688,2.94336 v 1.953124 l 0.9804688,2.94336 1.9492187,1.949219 0.9648438,0.322265 -0.1113281,-0.05664 a 0.15001501,0.15001501 0 0 1 -0.039063,-0.0293 l -1,-1 -1,-1 a 0.15001501,0.15001501 0 0 1 -0.041016,-0.06836 l -1,-4 a 0.15001501,0.15001501 0 0 1 0,-0.07422 l 1,-4 a 0.15001501,0.15001501 0 0 1 0.041016,-0.06836 l 1,-0.9999998 1,-1 a 0.15001501,0.15001501 0 0 1 0.039063,-0.029297 z M 8.7578125,8.546875 11.105469,10.894531 a 0.15001501,0.15001501 0 0 1 0.03711,0.05859 l 1,3 A 0.15001501,0.15001501 0 0 1 12.150391,14 v 2 a 0.15001501,0.15001501 0 0 1 -0.0078,0.04687 l -1,3 a 0.15001501,0.15001501 0 0 1 -0.03711,0.05859 l -1.9550784,1.955078 v 0.197265 L 9.9121094,20.876953 10.894531,19.894531 11.865234,18.923828 12.845703,15 11.865234,11.076172 10.894531,10.105469 9.9121094,9.1230469 Z m -1.515625,0 L 6.0878906,9.1230469 5.1054688,10.105469 4.1347656,11.076172 3.1542969,15 l 0.9804687,3.923828 0.9707032,0.970703 0.9824218,0.982422 0.7617188,0.380859 V 21.060547 L 4.8945312,19.105469 a 0.15001501,0.15001501 0 0 1 -0.037109,-0.05859 l -1,-3 A 0.15001501,0.15001501 0 0 1 3.8496094,16 v -2 a 0.15001501,0.15001501 0 0 1 0.00781,-0.04687 l 1,-3 a 0.15001501,0.15001501 0 0 1 0.037109,-0.05859 z M 8,8.2128906 5.1308594,11.080078 4.1503906,14.023438 v 1.953124 l 0.9804688,2.94336 1.71875,1.71875 V 18 A 0.15001501,0.15001501 0 0 1 7,17.849609 h 0.9824219 a 0.15001501,0.15001501 0 0 1 0.044922,0 H 9 A 0.15001501,0.15001501 0 0 1 9.1503906,18 v 2.638672 l 1.7187504,-1.71875 0.980468,-2.94336 v -1.953124 l -0.980468,-2.94336 z M 7.9804688,7.8496094 a 0.15001501,0.15001501 0 0 1 0.013672,0 0.15001501,0.15001501 0 0 1 0.00586,0 0.15001501,0.15001501 0 0 1 0.00391,0 0.15001501,0.15001501 0 0 1 0.00586,0 0.15001501,0.15001501 0 0 1 0.00391,0 0.15001501,0.15001501 0 0 1 0.00195,0 0.15001501,0.15001501 0 0 1 0.00195,0 0.15001501,0.15001501 0 0 1 0.00586,0.00195 0.15001501,0.15001501 0 0 1 0.00195,0 0.15001501,0.15001501 0 0 1 0.017578,0.00391 0.15001501,0.15001501 0 0 1 0.00391,0.00195 0.15001501,0.15001501 0 0 1 0.00586,0.00195 0.15001501,0.15001501 0 0 1 0.00391,0.00195 0.15001501,0.15001501 0 0 1 0.00977,0.00391 l 0.00586,0.00195 2.9746094,0.9902344 a 0.15001501,0.15001501 0 0 1 0.05859,0.037109 l 2,1.9999998 a 0.15001501,0.15001501 0 0 1 0.03711,0.05859 l 1,3 A 0.15001501,0.15001501 0 0 1 14.150391,14 v 2 a 0.15001501,0.15001501 0 0 1 -0.0078,0.04687 l -1,3 a 0.15001501,0.15001501 0 0 1 -0.03711,0.05859 l -2,2 a 0.15001501,0.15001501 0 0 1 -0.05859,0.03711 L 9.1503906,21.775391 V 26 A 0.15001501,0.15001501 0 0 1 9,26.150391 H 8.0175781 a 0.15001501,0.15001501 0 0 1 -0.044922,0 H 7 A 0.15001501,0.15001501 0 0 1 6.8496094,26 V 21.775391 L 4.953125,21.142578 a 0.15001501,0.15001501 0 0 1 -0.058594,-0.03711 l -2,-2 a 0.15001501,0.15001501 0 0 1 -0.037109,-0.05859 l -1,-3 A 0.15001501,0.15001501 0 0 1 1.8496094,16 v -2 a 0.15001501,0.15001501 0 0 1 0.00781,-0.04687 l 1,-3 a 0.15001501,0.15001501 0 0 1 0.037109,-0.05859 l 2,-1.9999998 A 0.15001501,0.15001501 0 0 1 4.953125,8.8574219 L 7.9316406,7.8652344 a 0.15001501,0.15001501 0 0 1 0.00586,-0.00391 0.15001501,0.15001501 0 0 1 0.013672,-0.00391 0.15001501,0.15001501 0 0 1 0.00195,0 0.15001501,0.15001501 0 0 1 0.00195,-0.00195 0.15001501,0.15001501 0 0 1 0.00195,0 0.15001501,0.15001501 0 0 1 0.00781,-0.00195 0.15001501,0.15001501 0 0 1 0.00586,-0.00195 0.15001501,0.15001501 0 0 1 0.00391,0 0.15001501,0.15001501 0 0 1 0.00586,-0.00195 z"
     id="path2" />
</svg>
