<?xml version="1.0" encoding="UTF-8" standalone="no"?>
<svg
   xmlns:dc="http://purl.org/dc/elements/1.1/"
   xmlns:cc="http://creativecommons.org/ns#"
   xmlns:rdf="http://www.w3.org/1999/02/22-rdf-syntax-ns#"
   xmlns:svg="http://www.w3.org/2000/svg"
   xmlns="http://www.w3.org/2000/svg"
   xmlns:sodipodi="http://sodipodi.sourceforge.net/DTD/sodipodi-0.dtd"
   xmlns:inkscape="http://www.inkscape.org/namespaces/inkscape"
   data-dec="127"
   width="16"
   height="40"
   version="1.1"
   id="svg4"
   sodipodi:docname="127.svg"
   inkscape:version="0.92.4 (unknown)">
  <metadata
     id="metadata10">
    <rdf:RDF>
      <cc:Work
         rdf:about="">
        <dc:format>image/svg+xml</dc:format>
        <dc:type
           rdf:resource="http://purl.org/dc/dcmitype/StillImage" />
      </cc:Work>
    </rdf:RDF>
  </metadata>
  <defs
     id="defs8" />
  <sodipodi:namedview
     pagecolor="#ffffff"
     bordercolor="#666666"
     borderopacity="1"
     objecttolerance="10"
     gridtolerance="10"
     guidetolerance="10"
     inkscape:pageopacity="0"
     inkscape:pageshadow="2"
     inkscape:window-width="640"
     inkscape:window-height="480"
     id="namedview6"
     showgrid="false"
     inkscape:zoom="7.3519531"
     inkscape:cx="8"
     inkscape:cy="20"
     inkscape:window-x="0"
     inkscape:window-y="27"
     inkscape:window-maximized="0"
     inkscape:current-layer="svg4" />
  <path
     style="color:#000000;font-style:normal;font-variant:normal;font-weight:normal;font-stretch:normal;font-size:medium;line-height:normal;font-family:sans-serif;font-variant-ligatures:normal;font-variant-position:normal;font-variant-caps:normal;font-variant-numeric:normal;font-variant-alternates:normal;font-feature-settings:normal;text-indent:0;text-align:start;text-decoration:none;text-decoration-line:none;text-decoration-style:solid;text-decoration-color:#000000;letter-spacing:normal;word-spacing:normal;text-transform:none;writing-mode:lr-tb;direction:ltr;text-orientation:mixed;dominant-baseline:auto;baseline-shift:baseline;text-anchor:start;white-space:normal;shape-padding:0;clip-rule:nonzero;display:inline;overflow:visible;visibility:visible;opacity:1;isolation:auto;mix-blend-mode:normal;color-interpolation:sRGB;color-interpolation-filters:linearRGB;solid-color:#000000;solid-opacity:1;vector-effect:none;fill:#000000;fill-opacity:1;fill-rule:nonzero;stroke:none;stroke-width:0.30000001;stroke-linecap:round;stroke-linejoin:round;stroke-miterlimit:4;stroke-dasharray:none;stroke-dashoffset:0;stroke-opacity:1;color-rendering:auto;image-rendering:auto;shape-rendering:auto;text-rendering:auto;enable-background:accumulate"
     d="m -0.01757813,0.84765625 a 0.15001501,0.15001501 0 0 1 0.015625,0 A 0.15001501,0.15001501 0 0 1 0.15039062,1 V 21.849609 H 0.84960938 V 1 A 0.15001501,0.15001501 0 0 1 1,0.84960938 H 2 A 0.15001501,0.15001501 0 0 1 2.1503906,1 V 21.849609 H 2.8496094 V 1 A 0.15001501,0.15001501 0 0 1 3,0.84960938 H 4 A 0.15001501,0.15001501 0 0 1 4.1503906,1 V 21.849609 H 4.8496094 V 1 A 0.15001501,0.15001501 0 0 1 5,0.84960938 H 6 A 0.15001501,0.15001501 0 0 1 6.1503906,1 V 21.849609 H 6.8496094 V 1 A 0.15001501,0.15001501 0 0 1 7,0.84960938 H 8 A 0.15001501,0.15001501 0 0 1 8.1503906,1 V 21.849609 H 8.8496094 V 1 A 0.15001501,0.15001501 0 0 1 9,0.84960938 h 1 A 0.15001501,0.15001501 0 0 1 10.150391,1 v 20.849609 h 0.699218 V 1 A 0.15001501,0.15001501 0 0 1 11,0.84960938 h 1 A 0.15001501,0.15001501 0 0 1 12.150391,1 v 20.849609 h 0.699218 V 1 A 0.15001501,0.15001501 0 0 1 13,0.84960938 h 1 A 0.15001501,0.15001501 0 0 1 14.150391,1 v 20.849609 h 0.699218 V 1 A 0.15001501,0.15001501 0 0 1 15,0.84960938 h 1 A 0.15001501,0.15001501 0 0 1 16.150391,1 v 21 a 0.150391,0.150391 0 0 1 -0.300782,0 V 1.1503906 H 15.150391 V 22 A 0.15001501,0.15001501 0 0 1 15,22.150391 H 14 A 0.15001501,0.15001501 0 0 1 13.849609,22 V 1.1503906 H 13.150391 V 22 A 0.15001501,0.15001501 0 0 1 13,22.150391 H 12 A 0.15001501,0.15001501 0 0 1 11.849609,22 V 1.1503906 H 11.150391 V 22 A 0.15001501,0.15001501 0 0 1 11,22.150391 H 10 A 0.15001501,0.15001501 0 0 1 9.8496094,22 V 1.1503906 H 9.1503906 V 22 A 0.15001501,0.15001501 0 0 1 9,22.150391 H 8 A 0.15001501,0.15001501 0 0 1 7.8496094,22 V 1.1503906 H 7.1503906 V 22 A 0.15001501,0.15001501 0 0 1 7,22.150391 H 6 A 0.15001501,0.15001501 0 0 1 5.8496094,22 V 1.1503906 H 5.1503906 V 22 A 0.15001501,0.15001501 0 0 1 5,22.150391 H 4 A 0.15001501,0.15001501 0 0 1 3.8496094,22 V 1.1503906 H 3.1503906 V 22 A 0.15001501,0.15001501 0 0 1 3,22.150391 H 2 A 0.15001501,0.15001501 0 0 1 1.8496094,22 V 1.1503906 H 1.1503906 V 22 A 0.15001501,0.15001501 0 0 1 1,22.150391 H 0 A 0.15001501,0.15001501 0 0 1 -0.15039062,22 V 1 a 0.15001501,0.15001501 0 0 1 0.13281249,-0.15234375 z"
     id="path2" />
</svg>
