<?xml version="1.0" encoding="UTF-8" standalone="no"?>
<svg
   xmlns:dc="http://purl.org/dc/elements/1.1/"
   xmlns:cc="http://creativecommons.org/ns#"
   xmlns:rdf="http://www.w3.org/1999/02/22-rdf-syntax-ns#"
   xmlns:svg="http://www.w3.org/2000/svg"
   xmlns="http://www.w3.org/2000/svg"
   xmlns:sodipodi="http://sodipodi.sourceforge.net/DTD/sodipodi-0.dtd"
   xmlns:inkscape="http://www.inkscape.org/namespaces/inkscape"
   data-dec="37"
   width="26"
   height="40"
   version="1.1"
   id="svg4"
   sodipodi:docname="37.svg"
   inkscape:version="0.92.4 (unknown)">
  <metadata
     id="metadata10">
    <rdf:RDF>
      <cc:Work
         rdf:about="">
        <dc:format>image/svg+xml</dc:format>
        <dc:type
           rdf:resource="http://purl.org/dc/dcmitype/StillImage" />
      </cc:Work>
    </rdf:RDF>
  </metadata>
  <defs
     id="defs8" />
  <sodipodi:namedview
     pagecolor="#ffffff"
     bordercolor="#666666"
     borderopacity="1"
     objecttolerance="10"
     gridtolerance="10"
     guidetolerance="10"
     inkscape:pageopacity="0"
     inkscape:pageshadow="2"
     inkscape:window-width="640"
     inkscape:window-height="480"
     id="namedview6"
     showgrid="false"
     inkscape:zoom="7.3519531"
     inkscape:cx="13"
     inkscape:cy="20"
     inkscape:window-x="0"
     inkscape:window-y="27"
     inkscape:window-maximized="0"
     inkscape:current-layer="svg4" />
  <path
     style="color:#000000;font-style:normal;font-variant:normal;font-weight:normal;font-stretch:normal;font-size:medium;line-height:normal;font-family:sans-serif;font-variant-ligatures:normal;font-variant-position:normal;font-variant-caps:normal;font-variant-numeric:normal;font-variant-alternates:normal;font-feature-settings:normal;text-indent:0;text-align:start;text-decoration:none;text-decoration-line:none;text-decoration-style:solid;text-decoration-color:#000000;letter-spacing:normal;word-spacing:normal;text-transform:none;writing-mode:lr-tb;direction:ltr;text-orientation:mixed;dominant-baseline:auto;baseline-shift:baseline;text-anchor:start;white-space:normal;shape-padding:0;clip-rule:nonzero;display:inline;overflow:visible;visibility:visible;opacity:1;isolation:auto;mix-blend-mode:normal;color-interpolation:sRGB;color-interpolation-filters:linearRGB;solid-color:#000000;solid-opacity:1;vector-effect:none;fill:#000000;fill-opacity:1;fill-rule:nonzero;stroke:none;stroke-width:0.30000001;stroke-linecap:round;stroke-linejoin:round;stroke-miterlimit:4;stroke-dasharray:none;stroke-dashoffset:0;stroke-opacity:1;color-rendering:auto;image-rendering:auto;shape-rendering:auto;text-rendering:auto;enable-background:accumulate"
     d="M 18.431641,10.548828 15.964844,12.203125 15.142578,14.09375 15.117188,17 l 1.003906,2.867188 2.453125,1.68164 -0.804688,-1.611328 a 0.15001501,0.15001501 0 0 1 0,-0.0039 l -0.90625,-1.916016 a 0.15001501,0.15001501 0 0 1 -0.01367,-0.06445 L 16.8125,13.089844 a 0.15001501,0.15001501 0 0 1 0.02539,-0.08399 z m 3.060547,-0.01953 1.585937,2.384765 a 0.15001501,0.15001501 0 0 1 0.02539,0.08399 l -0.0059,4.03125 a 0.15001501,0.15001501 0 0 1 -0.0078,0.04297 l -0.921875,3.054687 a 0.15001501,0.15001501 0 0 1 -0.01367,0.0293 l -0.775391,1.390625 2.503906,-1.607422 1.027344,-2.789062 -0.08984,-3.126953 -0.976562,-1.923829 z m -0.615235,-0.380859 -1.203125,0.002 -0.630859,0.0039 -1.929688,2.976562 0.03516,4.78711 0.890624,1.886719 1.015626,2.037109 h 1.816406 l 1.013672,-1.816406 0.912109,-3.017579 0.0059,-3.964843 z m 0.07617,-0.3066411 a 0.15001501,0.15001501 0 0 1 0.08594,0.025391 l 3.003907,2.0058595 a 0.15001501,0.15001501 0 0 1 0.05078,0.05664 l 1.009766,1.988281 a 0.15001501,0.15001501 0 0 1 0.01563,0.0625 l 0.0918,3.189453 a 0.15001501,0.15001501 0 0 1 -0.0098,0.05664 l -1.054688,2.863282 a 0.15001501,0.15001501 0 0 1 -0.05859,0.07422 l -3.046875,1.957032 a 0.15001501,0.15001501 0 0 1 -0.08203,0.02344 l -1.998046,-0.002 a 0.15001501,0.15001501 0 0 1 -0.0039,0 0.15001501,0.15001501 0 0 1 -0.01172,0 0.15001501,0.15001501 0 0 1 -0.002,0 0.15001501,0.15001501 0 0 1 -0.07031,-0.02539 l -2.960938,-2.03125 a 0.15001501,0.15001501 0 0 1 -0.05664,-0.07422 l -1.029297,-2.9375 a 0.15001501,0.15001501 0 0 1 -0.0098,-0.05078 l 0.02539,-2.962891 a 0.15001501,0.15001501 0 0 1 0.01367,-0.05859 l 0.853515,-1.958984 a 0.15001501,0.15001501 0 0 1 0.05274,-0.06445 l 3.08789,-2.0742191 a 0.15001501,0.15001501 0 0 1 0.113282,-0.052734 l 0.503906,-0.00195 z M 4.46875,1.5585938 2.0039062,3.2128906 1.1796875,5.1035156 1.1542969,8.0097656 2.1601562,10.876953 4.609375,12.556641 3.8066406,10.947266 a 0.15001501,0.15001501 0 0 1 0,-0.002 l -0.90625,-1.9179682 a 0.15001501,0.15001501 0 0 1 -0.013672,-0.0625 L 2.8515625,4.0996094 A 0.15001501,0.15001501 0 0 1 2.875,4.0175781 Z m 3.0625,-0.015625 1.5839844,2.3808593 a 0.15001501,0.15001501 0 0 1 0.025391,0.083984 l -0.00586,4.0332031 a 0.15001501,0.15001501 0 0 1 -0.00781,0.042969 l -0.921875,3.0546876 a 0.15001501,0.15001501 0 0 1 -0.013672,0.0293 L 7.4179688,12.556641 9.9199219,10.949219 10.947266,8.1621094 10.857422,5.0332031 9.8828125,3.1113281 Z m -0.6152344,-0.3828126 -1.4609375,0.00195 -0.3730469,0.00195 -1.9316406,2.9785156 0.035156,4.7871094 0.890625,1.8867185 1.015625,2.03711 H 6.9082031 L 7.921875,11.035156 8.8339844,8.0175781 8.8398438,4.0527344 Z M 17.957031,0.8828125 a 0.15001501,0.15001501 0 0 1 0.144531,0.2167969 L 8.0234375,22.033203 A 0.15001501,0.15001501 0 1 1 7.7539062,21.904297 L 17.830078,0.97070312 A 0.15001501,0.15001501 0 0 1 17.957031,0.8828125 Z M 6.9921875,0.8515625 a 0.15001501,0.15001501 0 0 1 0.083984,0.0253906 L 10.082031,2.8828125 a 0.15001501,0.15001501 0 0 1 0.05078,0.056641 l 1.007813,1.9882813 a 0.15001501,0.15001501 0 0 1 0.01563,0.064453 l 0.0918,3.1894531 a 0.15001501,0.15001501 0 0 1 -0.0078,0.056641 l -1.054687,2.8613278 a 0.15001501,0.15001501 0 0 1 -0.06055,0.07422 l -3.0429688,1.953125 -0.00391,0.0039 a 0.15001501,0.15001501 0 0 1 -0.082031,0.02344 H 5 4.9980469 a 0.15001501,0.15001501 0 0 1 -0.00391,0 0.15001501,0.15001501 0 0 1 -0.025391,-0.0039 0.15001501,0.15001501 0 0 1 -0.00391,0 0.15001501,0.15001501 0 0 1 -0.011719,-0.0039 0.15001501,0.15001501 0 0 1 -0.00195,0 0.15001501,0.15001501 0 0 1 -0.025391,-0.01172 0.15001501,0.15001501 0 0 1 -0.00195,0 0.15001501,0.15001501 0 0 1 -0.013672,-0.0078 L 1.9492188,11.097656 a 0.15001501,0.15001501 0 0 1 -0.056641,-0.07422 L 0.86328125,8.0839844 a 0.15001501,0.15001501 0 0 1 -0.009766,-0.050781 l 0.0253906,-2.9628906 a 0.15001501,0.15001501 0 0 1 0.0136719,-0.058594 L 1.7460938,3.0527344 a 0.15001501,0.15001501 0 0 1 0.052734,-0.064453 L 4.8828125,0.91796875 a 0.15001501,0.15001501 0 0 1 0.1191406,-0.0566406 h 0.6679688 z"
     id="path2" />
</svg>
