<?xml version="1.0" encoding="UTF-8" standalone="no"?>
<svg
   xmlns:dc="http://purl.org/dc/elements/1.1/"
   xmlns:cc="http://creativecommons.org/ns#"
   xmlns:rdf="http://www.w3.org/1999/02/22-rdf-syntax-ns#"
   xmlns:svg="http://www.w3.org/2000/svg"
   xmlns="http://www.w3.org/2000/svg"
   xmlns:sodipodi="http://sodipodi.sourceforge.net/DTD/sodipodi-0.dtd"
   xmlns:inkscape="http://www.inkscape.org/namespaces/inkscape"
   data-dec="39"
   width="10"
   height="40"
   version="1.1"
   id="svg4"
   sodipodi:docname="39.svg"
   inkscape:version="0.92.4 (unknown)">
  <metadata
     id="metadata10">
    <rdf:RDF>
      <cc:Work
         rdf:about="">
        <dc:format>image/svg+xml</dc:format>
        <dc:type
           rdf:resource="http://purl.org/dc/dcmitype/StillImage" />
      </cc:Work>
    </rdf:RDF>
  </metadata>
  <defs
     id="defs8" />
  <sodipodi:namedview
     pagecolor="#ffffff"
     bordercolor="#666666"
     borderopacity="1"
     objecttolerance="10"
     gridtolerance="10"
     guidetolerance="10"
     inkscape:pageopacity="0"
     inkscape:pageshadow="2"
     inkscape:window-width="640"
     inkscape:window-height="480"
     id="namedview6"
     showgrid="false"
     inkscape:zoom="7.3519531"
     inkscape:cx="5"
     inkscape:cy="20"
     inkscape:window-x="0"
     inkscape:window-y="27"
     inkscape:window-maximized="0"
     inkscape:current-layer="svg4" />
  <path
     style="color:#000000;font-style:normal;font-variant:normal;font-weight:normal;font-stretch:normal;font-size:medium;line-height:normal;font-family:sans-serif;font-variant-ligatures:normal;font-variant-position:normal;font-variant-caps:normal;font-variant-numeric:normal;font-variant-alternates:normal;font-feature-settings:normal;text-indent:0;text-align:start;text-decoration:none;text-decoration-line:none;text-decoration-style:solid;text-decoration-color:#000000;letter-spacing:normal;word-spacing:normal;text-transform:none;writing-mode:lr-tb;direction:ltr;text-orientation:mixed;dominant-baseline:auto;baseline-shift:baseline;text-anchor:start;white-space:normal;shape-padding:0;clip-rule:nonzero;display:inline;overflow:visible;visibility:visible;opacity:1;isolation:auto;mix-blend-mode:normal;color-interpolation:sRGB;color-interpolation-filters:linearRGB;solid-color:#000000;solid-opacity:1;vector-effect:none;fill:#000000;fill-opacity:1;fill-rule:nonzero;stroke:none;stroke-width:0.30000001;stroke-linecap:round;stroke-linejoin:round;stroke-miterlimit:4;stroke-dasharray:none;stroke-dashoffset:0;stroke-opacity:1;color-rendering:auto;image-rendering:auto;shape-rendering:auto;text-rendering:auto;enable-background:accumulate"
     d="M 6.0546875,7.15625 4.7578125,8.453125 5.8691406,7.8984375 Z M 6.6816406,5.8925781 6.4785156,6.7070312 6.8183594,6.0292969 Z m -0.53125,-0.53125 V 6.7753906 L 6.4335938,5.6445312 Z m 0.6992188,-0.1367187 -0.082031,0.3320312 0.082031,0.082031 z M 6.7226562,4.4882812 6.2109375,5 6.5175781,5.3066406 Z M 5,3.2109375 4.3613281,3.8496094 H 5.6386719 Z M 5.8496094,2.3613281 5.2109375,3 5.8496094,3.6386719 Z m -1.6992188,0 V 3.6386719 L 4.7890625,3 Z M 4.3613281,2.1503906 5,2.7890625 5.6386719,2.1503906 Z M 3.9980469,1.8476562 a 0.15001501,0.15001501 0 0 1 0.029297,0.00195 h 1.9550781 a 0.15001501,0.15001501 0 0 1 0.027344,0 0.15001501,0.15001501 0 0 1 0.015625,0.00195 0.15001501,0.15001501 0 0 1 0.00195,0 0.15001501,0.15001501 0 0 1 0.027344,0.00781 0.15001501,0.15001501 0 0 1 0.00195,0 0.15001501,0.15001501 0 0 1 0.023437,0.013672 0.15001501,0.15001501 0 0 1 0.00195,0 0.15001501,0.15001501 0 0 1 0.033203,0.029297 0.15001501,0.15001501 0 0 1 0,0.00195 0.15001501,0.15001501 0 0 1 0.023437,0.035156 0.15001501,0.15001501 0 0 1 0,0.00195 0.15001501,0.15001501 0 0 1 0.011719,0.072266 v 1.96875 a 0.15001501,0.15001501 0 0 1 0,0.027344 0.15001501,0.15001501 0 0 1 0,0.00195 0.15001501,0.15001501 0 0 1 -0.00195,0.013672 0.15001501,0.15001501 0 0 1 0,0.00195 0.15001501,0.15001501 0 0 1 -0.00781,0.027344 0.15001501,0.15001501 0 0 1 0,0.00195 0.15001501,0.15001501 0 0 1 -0.013672,0.023437 0.15001501,0.15001501 0 0 1 0,0.00195 0.15001501,0.15001501 0 0 1 -0.029297,0.033203 0.15001501,0.15001501 0 0 1 -0.00195,0 0.15001501,0.15001501 0 0 1 -0.035156,0.023437 0.15001501,0.15001501 0 0 1 -0.00195,0 0.15001501,0.15001501 0 0 1 -0.072266,0.011719 h -1.96875 a 0.15001501,0.15001501 0 0 1 -0.027344,0 0.15001501,0.15001501 0 0 1 -0.00195,0 0.15001501,0.15001501 0 0 1 -0.013672,-0.00195 0.15001501,0.15001501 0 0 1 -0.00195,0 0.15001501,0.15001501 0 0 1 -0.027344,-0.00781 0.15001501,0.15001501 0 0 1 -0.00195,0 0.15001501,0.15001501 0 0 1 -0.023437,-0.013672 0.15001501,0.15001501 0 0 1 -0.00195,0 0.15001501,0.15001501 0 0 1 -0.033203,-0.029297 0.15001501,0.15001501 0 0 1 0,-0.00195 0.15001501,0.15001501 0 0 1 -0.023437,-0.035156 0.15001501,0.15001501 0 0 1 0,-0.00195 0.15001501,0.15001501 0 0 1 -0.011719,-0.072266 v -1.96875 a 0.15001501,0.15001501 0 0 1 -0.00195,-0.013672 0.15001501,0.15001501 0 0 1 0,-0.00195 0.15001501,0.15001501 0 0 1 0.00586,-0.042969 0.15001501,0.15001501 0 0 1 0,-0.00195 0.15001501,0.15001501 0 0 1 0.00586,-0.011719 0.15001501,0.15001501 0 0 1 0,-0.00195 0.15001501,0.15001501 0 0 1 0.00586,-0.011719 0.15001501,0.15001501 0 0 1 0,-0.00195 0.15001501,0.15001501 0 0 1 0.00781,-0.011719 0.15001501,0.15001501 0 0 1 0.00781,-0.011719 0.15001501,0.15001501 0 0 1 0,-0.00195 0.15001501,0.15001501 0 0 1 0.00586,-0.00391 0.15001501,0.15001501 0 0 1 0.039062,-0.033203 0.15001501,0.15001501 0 0 1 0.013672,-0.00586 0.15001501,0.15001501 0 0 1 0.015625,-0.00586 0.15001501,0.15001501 0 0 1 0.027344,-0.00586 0.15001501,0.15001501 0 0 1 0.00195,0 0.15001501,0.15001501 0 0 1 0.013672,-0.00195 z M 4.0625,1.1503906 3.1503906,2.0625 v 1.875 L 4.0625,4.8496094 h 1.875 L 6.8496094,3.9394531 V 2.0625 L 5.9375,1.1503906 Z M 3.984375,0.84960938 a 0.15001501,0.15001501 0 0 1 0.015625,0 h 2 a 0.15001501,0.15001501 0 0 1 0.1054688,0.0449219 l 1,0.99999995 A 0.15001501,0.15001501 0 0 1 7.1503906,2 v 1.984375 a 0.15001501,0.15001501 0 0 1 0,0.00781 0.15001501,0.15001501 0 0 1 0,0.013672 0.15001501,0.15001501 0 0 1 0,0.00781 v 1.96875 a 0.15001501,0.15001501 0 0 1 0,0.027344 0.15001501,0.15001501 0 0 1 0,0.00195 0.15001501,0.15001501 0 0 1 -0.00195,0.013672 0.15001501,0.15001501 0 0 1 0,0.00195 0.15001501,0.15001501 0 0 1 -0.021484,0.054687 L 6.1367188,8.0605469 a 0.15001501,0.15001501 0 0 1 -0.00391,0.00781 0.15001501,0.15001501 0 0 1 -0.00195,0.00391 0.15001501,0.15001501 0 0 1 0,0.00195 0.15001501,0.15001501 0 0 1 -0.017578,0.023437 0.15001501,0.15001501 0 0 1 0,0.00195 0.15001501,0.15001501 0 0 1 -0.00977,0.00781 0.15001501,0.15001501 0 0 1 -0.056641,0.037109 L 4.0742188,9.1308594 a 0.15001501,0.15001501 0 0 1 -0.00781,0.00391 0.15001501,0.15001501 0 0 1 -0.00977,0.00391 0.15001501,0.15001501 0 0 1 -0.00977,0.00391 0.15001501,0.15001501 0 0 1 -0.00586,0.00195 0.15001501,0.15001501 0 0 1 -0.027344,0.00586 0.15001501,0.15001501 0 0 1 -0.025391,0 0.15001501,0.15001501 0 0 1 -0.00391,0 0.15001501,0.15001501 0 0 1 -0.011719,-0.00195 0.15001501,0.15001501 0 0 1 -0.00391,0 0.15001501,0.15001501 0 0 1 -0.00977,-0.00195 0.15001501,0.15001501 0 0 1 -0.00391,-0.00195 0.15001501,0.15001501 0 0 1 -0.011719,-0.00391 0.15001501,0.15001501 0 0 1 -0.00195,-0.00195 0.15001501,0.15001501 0 0 1 -0.011719,-0.00391 0.15001501,0.15001501 0 0 1 -0.00195,-0.00195 0.15001501,0.15001501 0 0 1 -0.00977,-0.00586 0.15001501,0.15001501 0 0 1 -0.00391,-0.00195 0.15001501,0.15001501 0 0 1 -0.00781,-0.00586 0.15001501,0.15001501 0 0 1 -0.00391,-0.00195 0.15001501,0.15001501 0 0 1 -0.00781,-0.00781 0.15001501,0.15001501 0 0 1 -0.00391,-0.00391 0.15001501,0.15001501 0 0 1 -0.00586,-0.00781 0.15001501,0.15001501 0 0 1 -0.00977,-0.00977 0.15001501,0.15001501 0 0 1 -0.00195,-0.00586 0.15001501,0.15001501 0 0 1 -0.00586,-0.00781 0.15001501,0.15001501 0 0 1 -0.00195,-0.00195 0.15001501,0.15001501 0 0 1 -0.00391,-0.011719 0.15001501,0.15001501 0 0 1 -0.00195,-0.00391 0.15001501,0.15001501 0 0 1 -0.00391,-0.00977 0.15001501,0.15001501 0 0 1 -0.00195,-0.00391 0.15001501,0.15001501 0 0 1 -0.00195,-0.011719 0.15001501,0.15001501 0 0 1 -0.00391,-0.029297 0.15001501,0.15001501 0 0 1 0,-0.00391 0.15001501,0.15001501 0 0 1 0.00195,-0.011719 0.15001501,0.15001501 0 0 1 0,-0.00391 0.15001501,0.15001501 0 0 1 0.00195,-0.00977 0.15001501,0.15001501 0 0 1 0,-0.00391 0.15001501,0.15001501 0 0 1 0.00391,-0.011719 0.15001501,0.15001501 0 0 1 0,-0.00391 0.15001501,0.15001501 0 0 1 0.00391,-0.00781 0.15001501,0.15001501 0 0 1 0.00195,-0.00391 0.15001501,0.15001501 0 0 1 0,-0.00195 0.15001501,0.15001501 0 0 1 0.013672,-0.021484 0.15001501,0.15001501 0 0 1 0.00195,-0.00391 0.15001501,0.15001501 0 0 1 0.00586,-0.00977 0.15001501,0.15001501 0 0 1 0.00195,-0.00195 0.15001501,0.15001501 0 0 1 0.00977,-0.00781 l 0.00195,-0.00391 a 0.15001501,0.15001501 0 0 1 0.011719,-0.00977 L 5.8496094,6.9375 V 5.1503906 H 4 A 0.15001501,0.15001501 0 0 1 3.8945312,5.1054688 l -1,-1 A 0.15001501,0.15001501 0 0 1 2.8496094,4 V 2 a 0.15001501,0.15001501 0 0 1 0.044922,-0.1054688 l 1,-0.99999995 a 0.15001501,0.15001501 0 0 1 0.089844,-0.0449219 z"
     id="path2" />
</svg>
