<?xml version="1.0" encoding="UTF-8" standalone="no"?>
<svg
   xmlns:dc="http://purl.org/dc/elements/1.1/"
   xmlns:cc="http://creativecommons.org/ns#"
   xmlns:rdf="http://www.w3.org/1999/02/22-rdf-syntax-ns#"
   xmlns:svg="http://www.w3.org/2000/svg"
   xmlns="http://www.w3.org/2000/svg"
   xmlns:sodipodi="http://sodipodi.sourceforge.net/DTD/sodipodi-0.dtd"
   xmlns:inkscape="http://www.inkscape.org/namespaces/inkscape"
   data-dec="8230"
   width="14"
   height="40"
   version="1.1"
   id="svg4"
   sodipodi:docname="8230.svg"
   inkscape:version="0.92.4 (unknown)">
  <metadata
     id="metadata10">
    <rdf:RDF>
      <cc:Work
         rdf:about="">
        <dc:format>image/svg+xml</dc:format>
        <dc:type
           rdf:resource="http://purl.org/dc/dcmitype/StillImage" />
      </cc:Work>
    </rdf:RDF>
  </metadata>
  <defs
     id="defs8" />
  <sodipodi:namedview
     pagecolor="#ffffff"
     bordercolor="#666666"
     borderopacity="1"
     objecttolerance="10"
     gridtolerance="10"
     guidetolerance="10"
     inkscape:pageopacity="0"
     inkscape:pageshadow="2"
     inkscape:window-width="640"
     inkscape:window-height="480"
     id="namedview6"
     showgrid="false"
     inkscape:zoom="7.3519531"
     inkscape:cx="7"
     inkscape:cy="20"
     inkscape:window-x="0"
     inkscape:window-y="27"
     inkscape:window-maximized="0"
     inkscape:current-layer="svg4" />
  <path
     style="color:#000000;font-style:normal;font-variant:normal;font-weight:normal;font-stretch:normal;font-size:medium;line-height:normal;font-family:sans-serif;font-variant-ligatures:normal;font-variant-position:normal;font-variant-caps:normal;font-variant-numeric:normal;font-variant-alternates:normal;font-feature-settings:normal;text-indent:0;text-align:start;text-decoration:none;text-decoration-line:none;text-decoration-style:solid;text-decoration-color:#000000;letter-spacing:normal;word-spacing:normal;text-transform:none;writing-mode:lr-tb;direction:ltr;text-orientation:mixed;dominant-baseline:auto;baseline-shift:baseline;text-anchor:start;white-space:normal;shape-padding:0;clip-rule:nonzero;display:inline;overflow:visible;visibility:visible;opacity:1;isolation:auto;mix-blend-mode:normal;color-interpolation:sRGB;color-interpolation-filters:linearRGB;solid-color:#000000;solid-opacity:1;vector-effect:none;fill:#000000;fill-opacity:1;fill-rule:nonzero;stroke:none;stroke-width:0.30000001;stroke-linecap:round;stroke-linejoin:round;stroke-miterlimit:4;stroke-dasharray:none;stroke-dashoffset:0;stroke-opacity:1;color-rendering:auto;image-rendering:auto;shape-rendering:auto;text-rendering:auto;enable-background:accumulate"
     d="M 11,17.210938 10.210938,18 11,18.789062 11.789062,18 Z m -4,0 L 6.2109375,18 7,18.789062 7.7890625,18 Z m -4,0 L 2.2109375,18 3,18.789062 3.7890625,18 Z m 7.996094,-0.363282 a 0.15001501,0.15001501 0 0 1 0.01563,0.002 0.15001501,0.15001501 0 0 1 0.002,0 0.15001501,0.15001501 0 0 1 0.01367,0.002 0.15001501,0.15001501 0 0 1 0.01563,0.0039 0.15001501,0.15001501 0 0 1 0.01367,0.0039 0.15001501,0.15001501 0 0 1 0.02539,0.01367 0.15001501,0.15001501 0 0 1 0.002,0.002 0.15001501,0.15001501 0 0 1 0.0098,0.0059 0.15001501,0.15001501 0 0 1 0.002,0.002 0.15001501,0.15001501 0 0 1 0.01953,0.01953 0.15001501,0.15001501 0 0 1 0.0098,0.01172 l 0.980469,0.980469 a 0.15001501,0.15001501 0 0 1 0,0.210938 l -1,1 a 0.15001501,0.15001501 0 0 1 -0.210938,0 l -0.9999998,-1 a 0.15001501,0.15001501 0 0 1 0,-0.210938 l 0.9785158,-0.976562 a 0.15001501,0.15001501 0 0 1 0.0078,-0.01172 0.15001501,0.15001501 0 0 1 0.05859,-0.04492 0.15001501,0.15001501 0 0 1 0.02539,-0.0078 0.15001501,0.15001501 0 0 1 0.03125,-0.0059 z m -4.0000002,0 a 0.15001501,0.15001501 0 0 1 0.015625,0.002 0.15001501,0.15001501 0 0 1 0.00195,0 0.15001501,0.15001501 0 0 1 0.013672,0.002 0.15001501,0.15001501 0 0 1 0.015625,0.0039 0.15001501,0.15001501 0 0 1 0.013672,0.0039 0.15001501,0.15001501 0 0 1 0.025391,0.01367 0.15001501,0.15001501 0 0 1 0.00195,0.002 0.15001501,0.15001501 0 0 1 0.00977,0.0059 0.15001501,0.15001501 0 0 1 0.00195,0.002 0.15001501,0.15001501 0 0 1 0.019531,0.01953 0.15001501,0.15001501 0 0 1 0.00977,0.01172 l 0.9804688,0.980469 a 0.15001501,0.15001501 0 0 1 0,0.210938 l -1,1 a 0.15001501,0.15001501 0 0 1 -0.2109376,0 l -1,-1 a 0.15001501,0.15001501 0 0 1 0,-0.210938 l 0.9785157,-0.976562 a 0.15001501,0.15001501 0 0 1 0.00781,-0.01172 0.15001501,0.15001501 0 0 1 0.058594,-0.04492 0.15001501,0.15001501 0 0 1 0.025391,-0.0078 0.15001501,0.15001501 0 0 1 0.03125,-0.0059 z m -4,0 a 0.15001501,0.15001501 0 0 1 0.015625,0.002 0.15001501,0.15001501 0 0 1 0.00195,0 0.15001501,0.15001501 0 0 1 0.013672,0.002 0.15001501,0.15001501 0 0 1 0.015625,0.0039 0.15001501,0.15001501 0 0 1 0.013672,0.0039 0.15001501,0.15001501 0 0 1 0.025391,0.01367 0.15001501,0.15001501 0 0 1 0.00195,0.002 0.15001501,0.15001501 0 0 1 0.00977,0.0059 0.15001501,0.15001501 0 0 1 0.00195,0.002 0.15001501,0.15001501 0 0 1 0.019531,0.01953 0.15001501,0.15001501 0 0 1 0.00977,0.01172 l 0.9804688,0.980469 a 0.15001501,0.15001501 0 0 1 0,0.210938 l -1,1 a 0.15001501,0.15001501 0 0 1 -0.2109376,0 l -1,-1 a 0.15001501,0.15001501 0 0 1 0,-0.210938 l 0.9785157,-0.976562 a 0.15001501,0.15001501 0 0 1 0.00781,-0.01172 0.15001501,0.15001501 0 0 1 0.058594,-0.04492 0.15001501,0.15001501 0 0 1 0.025391,-0.0078 0.15001501,0.15001501 0 0 1 0.03125,-0.0059 z"
     id="path2" />
</svg>
