<?xml version="1.0" encoding="UTF-8" standalone="no"?>
<svg
   xmlns:dc="http://purl.org/dc/elements/1.1/"
   xmlns:cc="http://creativecommons.org/ns#"
   xmlns:rdf="http://www.w3.org/1999/02/22-rdf-syntax-ns#"
   xmlns:svg="http://www.w3.org/2000/svg"
   xmlns="http://www.w3.org/2000/svg"
   xmlns:sodipodi="http://sodipodi.sourceforge.net/DTD/sodipodi-0.dtd"
   xmlns:inkscape="http://www.inkscape.org/namespaces/inkscape"
   data-dec="89"
   width="18"
   height="40"
   version="1.1"
   id="svg4"
   sodipodi:docname="89.svg"
   inkscape:version="0.92.4 (unknown)">
  <metadata
     id="metadata10">
    <rdf:RDF>
      <cc:Work
         rdf:about="">
        <dc:format>image/svg+xml</dc:format>
        <dc:type
           rdf:resource="http://purl.org/dc/dcmitype/StillImage" />
      </cc:Work>
    </rdf:RDF>
  </metadata>
  <defs
     id="defs8" />
  <sodipodi:namedview
     pagecolor="#ffffff"
     bordercolor="#666666"
     borderopacity="1"
     objecttolerance="10"
     gridtolerance="10"
     guidetolerance="10"
     inkscape:pageopacity="0"
     inkscape:pageshadow="2"
     inkscape:window-width="640"
     inkscape:window-height="480"
     id="namedview6"
     showgrid="false"
     inkscape:zoom="7.3519531"
     inkscape:cx="9"
     inkscape:cy="20"
     inkscape:window-x="0"
     inkscape:window-y="27"
     inkscape:window-maximized="0"
     inkscape:current-layer="svg4" />
  <path
     style="color:#000000;font-style:normal;font-variant:normal;font-weight:normal;font-stretch:normal;font-size:medium;line-height:normal;font-family:sans-serif;font-variant-ligatures:normal;font-variant-position:normal;font-variant-caps:normal;font-variant-numeric:normal;font-variant-alternates:normal;font-feature-settings:normal;text-indent:0;text-align:start;text-decoration:none;text-decoration-line:none;text-decoration-style:solid;text-decoration-color:#000000;letter-spacing:normal;word-spacing:normal;text-transform:none;writing-mode:lr-tb;direction:ltr;text-orientation:mixed;dominant-baseline:auto;baseline-shift:baseline;text-anchor:start;white-space:normal;shape-padding:0;clip-rule:nonzero;display:inline;overflow:visible;visibility:visible;opacity:1;isolation:auto;mix-blend-mode:normal;color-interpolation:sRGB;color-interpolation-filters:linearRGB;solid-color:#000000;solid-opacity:1;vector-effect:none;fill:#000000;fill-opacity:1;fill-rule:nonzero;stroke:none;stroke-width:0.30000001;stroke-linecap:round;stroke-linejoin:round;stroke-miterlimit:4;stroke-dasharray:none;stroke-dashoffset:0;stroke-opacity:1;color-rendering:auto;image-rendering:auto;shape-rendering:auto;text-rendering:auto;enable-background:accumulate"
     d="m 1.9902344,1.8476562 a 0.15001501,0.15001501 0 0 1 0.1386718,0.074219 l 6,10 A 0.15001501,0.15001501 0 0 1 8.1503906,12 v 9.849609 H 8.8496094 V 12.041016 L 2.8710938,2.078125 a 0.15073262,0.15073262 0 1 1 0.2578124,-0.15625 l 6,10 A 0.15001501,0.15001501 0 0 1 9.1503906,12 v 9.849609 H 9.8496094 V 12.041016 L 3.8710938,2.078125 A 0.15073262,0.15073262 0 1 1 4.1289062,1.921875 L 10,11.707031 15.871094,1.921875 a 0.15073245,0.15073245 0 0 1 0.257812,0.15625 l -5.978515,9.964844 V 22 A 0.15001501,0.15001501 0 0 1 10,22.150391 H 9.0175781 a 0.15001501,0.15001501 0 0 1 -0.044922,0 H 8 A 0.15001501,0.15001501 0 0 1 7.8496094,22 V 12.041016 L 1.8710938,2.078125 A 0.15001501,0.15001501 0 0 1 1.9902344,1.8476562 Z"
     id="path2" />
</svg>
